EESchema Schematic File Version 4
LIBS:DC_Load_NewBrain-cache
EELAYER 26 0
EELAYER END
$Descr A4 11693 8268
encoding utf-8
Sheet 1 3
Title "DC Load NewBrain"
Date "18/04/2019"
Rev "1.1"
Comp ""
Comment1 ""
Comment2 ""
Comment3 ""
Comment4 ""
$EndDescr
$Comp
L Device:C C3
U 1 1 5CB48637
P 900 1600
F 0 "C3" H 1018 1646 50  0000 L CNN
F 1 "10uF" H 1018 1555 50  0000 L CNN
F 2 "DC_Load_NewBrain:C_0805_2012Metric_Pad1.15x1.40mm_HandSolder" H 938 1450 50  0001 C CNN
F 3 "~" H 900 1600 50  0001 C CNN
	1    900  1600
	1    0    0    -1  
$EndComp
$Comp
L Device:C C4
U 1 1 5CB486FC
P 1375 1600
F 0 "C4" H 1490 1646 50  0000 L CNN
F 1 "100nF" H 1490 1555 50  0000 L CNN
F 2 "DC_Load_NewBrain:C_0805_2012Metric_Pad1.15x1.40mm_HandSolder" H 1413 1450 50  0001 C CNN
F 3 "~" H 1375 1600 50  0001 C CNN
	1    1375 1600
	1    0    0    -1  
$EndComp
$Comp
L Regulator_Linear:LD1117S33TR_SOT223 U2
U 1 1 5CB48A12
P 1975 1450
F 0 "U2" H 1975 1692 50  0000 C CNN
F 1 "LD1117S33TR" H 1975 1601 50  0000 C CNN
F 2 "DC_Load_NewBrain:SOT-223-3_TabPin2" H 1975 1650 50  0001 C CNN
F 3 "http://www.st.com/st-web-ui/static/active/en/resource/technical/document/datasheet/CD00000544.pdf" H 2075 1200 50  0001 C CNN
	1    1975 1450
	1    0    0    -1  
$EndComp
$Comp
L Device:C C5
U 1 1 5CB48B10
P 2425 1600
F 0 "C5" H 2540 1646 50  0000 L CNN
F 1 "10uF" H 2540 1555 50  0000 L CNN
F 2 "DC_Load_NewBrain:C_0805_2012Metric_Pad1.15x1.40mm_HandSolder" H 2463 1450 50  0001 C CNN
F 3 "~" H 2425 1600 50  0001 C CNN
	1    2425 1600
	1    0    0    -1  
$EndComp
$Comp
L power:+5V #PWR01
U 1 1 5CB48C6C
P 700 925
F 0 "#PWR01" H 700 775 50  0001 C CNN
F 1 "+5V" H 715 1098 50  0000 C CNN
F 2 "" H 700 925 50  0001 C CNN
F 3 "" H 700 925 50  0001 C CNN
	1    700  925 
	1    0    0    -1  
$EndComp
$Comp
L power:GND #PWR06
U 1 1 5CB48CE2
P 1975 1900
F 0 "#PWR06" H 1975 1650 50  0001 C CNN
F 1 "GND" H 1980 1727 50  0000 C CNN
F 2 "" H 1975 1900 50  0001 C CNN
F 3 "" H 1975 1900 50  0001 C CNN
	1    1975 1900
	1    0    0    -1  
$EndComp
Wire Wire Line
	1375 1450 1175 1450
Wire Wire Line
	900  1750 1000 1750
Wire Wire Line
	1675 1450 1625 1450
Connection ~ 1375 1450
Wire Wire Line
	1975 1750 1375 1750
Connection ~ 1375 1750
Wire Wire Line
	1975 1900 1975 1750
Connection ~ 1975 1750
Wire Wire Line
	2425 1750 1975 1750
Wire Wire Line
	2275 1450 2425 1450
$Comp
L Device:D_Schottky_ALT D3
U 1 1 5CB5AF70
P 700 1150
F 0 "D3" V 575 1100 50  0000 C CNN
F 1 "STPS1L30U" H 800 1250 39  0000 C CNN
F 2 "DC_Load_NewBrain:D_SMB_Standard" H 700 1150 50  0001 C CNN
F 3 "~" H 700 1150 50  0001 C CNN
	1    700  1150
	0    -1   -1   0   
$EndComp
Connection ~ 900  1450
Wire Wire Line
	700  1300 700  1450
Wire Wire Line
	700  1450 900  1450
Wire Wire Line
	700  925  700  1000
$Comp
L Device:Battery_Cell BT1
U 1 1 5CB68743
P 2125 900
F 0 "BT1" H 2243 996 50  0000 L CNN
F 1 "2032" H 2243 905 50  0000 L CNN
F 2 "DC_Load_NewBrain:Battery_2032_Q-J-BS-8" V 2125 960 50  0001 C CNN
F 3 "~" V 2125 960 50  0001 C CNN
	1    2125 900 
	1    0    0    -1  
$EndComp
$Comp
L Device:C C1
U 1 1 5CB68875
P 2550 850
F 0 "C1" H 2665 896 50  0000 L CNN
F 1 "10uF" H 2665 805 50  0000 L CNN
F 2 "DC_Load_NewBrain:C_0805_2012Metric_Pad1.15x1.40mm_HandSolder" H 2588 700 50  0001 C CNN
F 3 "~" H 2550 850 50  0001 C CNN
	1    2550 850 
	1    0    0    -1  
$EndComp
$Comp
L power:GND #PWR03
U 1 1 5CB688E1
P 2325 1075
F 0 "#PWR03" H 2325 825 50  0001 C CNN
F 1 "GND" H 2325 950 50  0000 C CNN
F 2 "" H 2325 1075 50  0001 C CNN
F 3 "" H 2325 1075 50  0001 C CNN
	1    2325 1075
	1    0    0    -1  
$EndComp
Wire Wire Line
	2125 700  2550 700 
Wire Wire Line
	2125 1000 2325 1000
Wire Wire Line
	2325 1075 2325 1000
Connection ~ 2325 1000
Wire Wire Line
	2325 1000 2550 1000
$Comp
L power:+3V3 #PWR05
U 1 1 5CB82A35
P 5700 1625
F 0 "#PWR05" H 5700 1475 50  0001 C CNN
F 1 "+3V3" H 5700 1775 50  0000 C CNN
F 2 "" H 5700 1625 50  0001 C CNN
F 3 "" H 5700 1625 50  0001 C CNN
	1    5700 1625
	-1   0    0    1   
$EndComp
$Comp
L Connector:TestPoint TP3
U 1 1 5CB82B4C
P 1175 1275
F 0 "TP3" H 1125 1475 39  0000 L CNN
F 1 "TestPoint" H 1233 1304 50  0001 L CNN
F 2 "DC_Load_NewBrain:TestPoint_Pad_D1.0mm" H 1375 1275 50  0001 C CNN
F 3 "~" H 1375 1275 50  0001 C CNN
	1    1175 1275
	1    0    0    -1  
$EndComp
Wire Wire Line
	1175 1275 1175 1450
Connection ~ 1175 1450
Wire Wire Line
	1175 1450 900  1450
$Comp
L Connector:TestPoint TP4
U 1 1 5CB855B7
P 2600 1275
F 0 "TP4" H 2550 1475 39  0000 L CNN
F 1 "TestPoint" H 2658 1304 50  0001 L CNN
F 2 "DC_Load_NewBrain:TestPoint_Pad_D1.0mm" H 2800 1275 50  0001 C CNN
F 3 "~" H 2800 1275 50  0001 C CNN
	1    2600 1275
	1    0    0    -1  
$EndComp
$Comp
L Connector:TestPoint TP1
U 1 1 5CB85709
P 2025 700
F 0 "TP1" V 2025 950 39  0000 C CNN
F 1 "TestPoint" H 2083 729 50  0001 L CNN
F 2 "DC_Load_NewBrain:TestPoint_Pad_D1.0mm" H 2225 700 50  0001 C CNN
F 3 "~" H 2225 700 50  0001 C CNN
	1    2025 700 
	0    -1   -1   0   
$EndComp
Wire Wire Line
	2025 700  2125 700 
Connection ~ 2125 700 
$Comp
L w_device:buzzer BZ1
U 1 1 5CB8B2B6
P 7775 1100
F 0 "BZ1" H 7863 1146 50  0000 L CNN
F 1 "Buzzer" H 7863 1055 50  0000 L CNN
F 2 "DC_Load_NewBrain:Buzzer_Jiangsu-Huaneng-Elec-MLT-7525" H 7775 1100 60  0001 C CNN
F 3 "" H 7775 1100 60  0000 C CNN
	1    7775 1100
	1    0    0    -1  
$EndComp
$Comp
L dk_Diodes-Rectifiers-Single:1N4148TA D1
U 1 1 5CB8E535
P 7350 1100
F 0 "D1" V 7387 1022 60  0000 R CNN
F 1 "1N4148W" V 7297 1022 39  0000 R CNN
F 2 "DC_Load_NewBrain:SOD-123" H 7550 1300 60  0001 L CNN
F 3 "https://www.fairchildsemi.com/datasheets/1N/1N914.pdf" H 7550 1400 60  0001 L CNN
F 4 "1N4148TACT-ND" H 7550 1500 60  0001 L CNN "Digi-Key_PN"
F 5 "1N4148TA" H 7550 1600 60  0001 L CNN "MPN"
F 6 "Discrete Semiconductor Products" H 7550 1700 60  0001 L CNN "Category"
F 7 "Diodes - Rectifiers - Single" H 7550 1800 60  0001 L CNN "Family"
F 8 "https://www.fairchildsemi.com/datasheets/1N/1N914.pdf" H 7550 1900 60  0001 L CNN "DK_Datasheet_Link"
F 9 "/product-detail/en/on-semiconductor/1N4148TA/1N4148TACT-ND/1532747" H 7550 2000 60  0001 L CNN "DK_Detail_Page"
F 10 "DIODE GEN PURP 100V 200MA DO35" H 7550 2100 60  0001 L CNN "Description"
F 11 "ON Semiconductor" H 7550 2200 60  0001 L CNN "Manufacturer"
F 12 "Active" H 7550 2300 60  0001 L CNN "Status"
	1    7350 1100
	0    -1   -1   0   
$EndComp
Wire Wire Line
	7725 1050 7725 900 
Wire Wire Line
	7725 900  7350 900 
Wire Wire Line
	7350 1300 7725 1300
Wire Wire Line
	7725 1300 7725 1150
$Comp
L power:GND #PWR09
U 1 1 5CB94D1F
P 7725 2125
F 0 "#PWR09" H 7725 1875 50  0001 C CNN
F 1 "GND" H 7730 1952 50  0000 C CNN
F 2 "" H 7725 2125 50  0001 C CNN
F 3 "" H 7725 2125 50  0001 C CNN
	1    7725 2125
	1    0    0    -1  
$EndComp
$Comp
L Device:Q_NMOS_GSD Q1
U 1 1 5CB984B4
P 7625 1650
F 0 "Q1" H 7830 1688 50  0000 L CNN
F 1 "NCE2302" H 7830 1605 39  0000 L CNN
F 2 "DC_Load_NewBrain:SOT-23_Handsoldering" H 7825 1750 50  0001 C CNN
F 3 "~" H 7625 1650 50  0001 C CNN
	1    7625 1650
	1    0    0    -1  
$EndComp
$Comp
L Device:R R5
U 1 1 5CB9862C
P 7175 1650
F 0 "R5" V 7100 1650 50  0000 C CNN
F 1 "100" V 7175 1650 39  0000 C CNN
F 2 "DC_Load_NewBrain:R_0805_2012Metric_Pad1.15x1.40mm_HandSolder" V 7105 1650 50  0001 C CNN
F 3 "~" H 7175 1650 50  0001 C CNN
	1    7175 1650
	0    1    1    0   
$EndComp
$Comp
L Device:R R9
U 1 1 5CB986E5
P 7375 1925
F 0 "R9" V 7300 1875 50  0000 L CNN
F 1 "100k" V 7375 1850 39  0000 L CNN
F 2 "DC_Load_NewBrain:R_0805_2012Metric_Pad1.15x1.40mm_HandSolder" V 7305 1925 50  0001 C CNN
F 3 "~" H 7375 1925 50  0001 C CNN
	1    7375 1925
	1    0    0    -1  
$EndComp
Wire Wire Line
	7725 800  7725 900 
Connection ~ 7725 900 
Wire Wire Line
	7725 1300 7725 1450
Connection ~ 7725 1300
Wire Wire Line
	7725 1850 7725 2075
Wire Wire Line
	7425 1650 7375 1650
Wire Wire Line
	7375 1775 7375 1650
Connection ~ 7375 1650
Wire Wire Line
	7375 1650 7325 1650
Wire Wire Line
	7375 2075 7725 2075
Connection ~ 7725 2075
Wire Wire Line
	7725 2075 7725 2125
$Comp
L power:GND #PWR045
U 1 1 5CBB0378
P 2750 7550
F 0 "#PWR045" H 2750 7300 50  0001 C CNN
F 1 "GND" H 2755 7377 50  0000 C CNN
F 2 "" H 2750 7550 50  0001 C CNN
F 3 "" H 2750 7550 50  0001 C CNN
	1    2750 7550
	1    0    0    -1  
$EndComp
Wire Wire Line
	2750 7550 2750 7475
$Comp
L Device:C C10
U 1 1 5CBBBAE4
P 1375 2600
F 0 "C10" H 1490 2638 39  0000 L CNN
F 1 "100nF" H 1490 2555 39  0000 L CNN
F 2 "DC_Load_NewBrain:C_0805_2012Metric_Pad1.15x1.40mm_HandSolder" H 1413 2450 50  0001 C CNN
F 3 "~" H 1375 2600 50  0001 C CNN
	1    1375 2600
	1    0    0    -1  
$EndComp
$Comp
L Device:C C11
U 1 1 5CBBBE74
P 1775 2600
F 0 "C11" H 1890 2638 39  0000 L CNN
F 1 "1uF" H 1890 2555 39  0000 L CNN
F 2 "DC_Load_NewBrain:C_0805_2012Metric_Pad1.15x1.40mm_HandSolder" H 1813 2450 50  0001 C CNN
F 3 "~" H 1775 2600 50  0001 C CNN
	1    1775 2600
	1    0    0    -1  
$EndComp
$Comp
L Device:C C8
U 1 1 5CBC7B09
P 650 2600
F 0 "C8" H 765 2638 39  0000 L CNN
F 1 "100nF" H 765 2555 39  0000 L CNN
F 2 "DC_Load_NewBrain:C_0805_2012Metric_Pad1.15x1.40mm_HandSolder" H 688 2450 50  0001 C CNN
F 3 "~" H 650 2600 50  0001 C CNN
	1    650  2600
	1    0    0    -1  
$EndComp
$Comp
L Device:C C9
U 1 1 5CBC7B0F
P 1050 2600
F 0 "C9" H 1165 2638 39  0000 L CNN
F 1 "1uF" H 1165 2555 39  0000 L CNN
F 2 "DC_Load_NewBrain:C_0805_2012Metric_Pad1.15x1.40mm_HandSolder" H 1088 2450 50  0001 C CNN
F 3 "~" H 1050 2600 50  0001 C CNN
	1    1050 2600
	1    0    0    -1  
$EndComp
$Comp
L Device:C C12
U 1 1 5CBCB8D0
P 2100 2600
F 0 "C12" H 2215 2638 39  0000 L CNN
F 1 "100nF" H 2215 2555 39  0000 L CNN
F 2 "DC_Load_NewBrain:C_0805_2012Metric_Pad1.15x1.40mm_HandSolder" H 2138 2450 50  0001 C CNN
F 3 "~" H 2100 2600 50  0001 C CNN
	1    2100 2600
	1    0    0    -1  
$EndComp
$Comp
L Device:C C13
U 1 1 5CBCB8D6
P 2500 2600
F 0 "C13" H 2615 2638 39  0000 L CNN
F 1 "1uF" H 2615 2555 39  0000 L CNN
F 2 "DC_Load_NewBrain:C_0805_2012Metric_Pad1.15x1.40mm_HandSolder" H 2538 2450 50  0001 C CNN
F 3 "~" H 2500 2600 50  0001 C CNN
	1    2500 2600
	1    0    0    -1  
$EndComp
$Comp
L power:GND #PWR013
U 1 1 5CBD34ED
P 1575 2825
F 0 "#PWR013" H 1575 2575 50  0001 C CNN
F 1 "GND" H 1580 2652 50  0000 C CNN
F 2 "" H 1575 2825 50  0001 C CNN
F 3 "" H 1575 2825 50  0001 C CNN
	1    1575 2825
	1    0    0    -1  
$EndComp
Wire Wire Line
	650  2750 1050 2750
Wire Wire Line
	2500 2750 2100 2750
Wire Wire Line
	2100 2750 1775 2750
Connection ~ 2100 2750
Wire Wire Line
	1050 2750 1375 2750
Connection ~ 1050 2750
Wire Wire Line
	1375 2750 1575 2750
Connection ~ 1375 2750
Connection ~ 1775 2750
Wire Wire Line
	1575 2825 1575 2750
Connection ~ 1575 2750
Wire Wire Line
	1575 2750 1775 2750
Wire Wire Line
	650  2450 1050 2450
Wire Wire Line
	1050 2450 1375 2450
Connection ~ 1050 2450
Connection ~ 1375 2450
Wire Wire Line
	1775 2450 2100 2450
Connection ~ 1775 2450
Wire Wire Line
	2100 2450 2500 2450
Connection ~ 2100 2450
Wire Wire Line
	2750 3075 2750 2450
Connection ~ 2500 2450
$Comp
L Device:C C15
U 1 1 5CC0F54F
P 3575 2775
F 0 "C15" V 3350 2750 39  0000 C CNN
F 1 "100nF" V 3422 2775 39  0000 C CNN
F 2 "DC_Load_NewBrain:C_0805_2012Metric_Pad1.15x1.40mm_HandSolder" H 3613 2625 50  0001 C CNN
F 3 "~" H 3575 2775 50  0001 C CNN
	1    3575 2775
	0    1    1    0   
$EndComp
$Comp
L Device:C C14
U 1 1 5CC0F666
P 3100 2775
F 0 "C14" V 3325 2800 39  0000 C CNN
F 1 "100nF" V 3253 2775 39  0000 C CNN
F 2 "DC_Load_NewBrain:C_0805_2012Metric_Pad1.15x1.40mm_HandSolder" H 3138 2625 50  0001 C CNN
F 3 "~" H 3100 2775 50  0001 C CNN
	1    3100 2775
	0    -1   -1   0   
$EndComp
$Comp
L power:GND #PWR014
U 1 1 5CC1A0F6
P 3250 2825
F 0 "#PWR014" H 3250 2575 50  0001 C CNN
F 1 "GND" H 3255 2652 50  0000 C CNN
F 2 "" H 3250 2825 50  0001 C CNN
F 3 "" H 3250 2825 50  0001 C CNN
	1    3250 2825
	1    0    0    -1  
$EndComp
$Comp
L w_device:ZENER D6
U 1 1 5CC25374
P 3600 3075
F 0 "D6" H 3625 2925 39  0000 C CNN
F 1 "UDZV3.0B" H 3525 3000 39  0000 C CNN
F 2 "DC_Load_NewBrain:D_SOD-323_HandSoldering" H 3600 3075 60  0001 C CNN
F 3 "" H 3600 3075 60  0000 C CNN
	1    3600 3075
	-1   0    0    1   
$EndComp
$Comp
L Device:R R12
U 1 1 5CC256C0
P 3275 2450
F 0 "R12" V 3350 2450 50  0000 C CNN
F 1 "33" V 3275 2450 39  0000 C CNN
F 2 "DC_Load_NewBrain:R_0805_2012Metric_Pad1.15x1.40mm_HandSolder" V 3205 2450 50  0001 C CNN
F 3 "~" H 3275 2450 50  0001 C CNN
	1    3275 2450
	0    -1   -1   0   
$EndComp
$Comp
L power:+3V3 #PWR011
U 1 1 5CC25AC2
P 2750 2375
F 0 "#PWR011" H 2750 2225 50  0001 C CNN
F 1 "+3V3" H 2765 2548 50  0000 C CNN
F 2 "" H 2750 2375 50  0001 C CNN
F 3 "" H 2750 2375 50  0001 C CNN
	1    2750 2375
	1    0    0    -1  
$EndComp
Connection ~ 2750 2450
Wire Wire Line
	2950 2775 2950 3075
Wire Wire Line
	3250 2775 3250 2825
Wire Wire Line
	3425 2450 3425 2775
Wire Wire Line
	3425 3075 3425 2775
Connection ~ 3425 2775
Wire Wire Line
	3050 3075 3425 3075
$Comp
L power:GND #PWR012
U 1 1 5CC5E898
P 3975 2775
F 0 "#PWR012" H 3975 2525 50  0001 C CNN
F 1 "GND" H 3980 2602 50  0000 C CNN
F 2 "" H 3975 2775 50  0001 C CNN
F 3 "" H 3975 2775 50  0001 C CNN
	1    3975 2775
	1    0    0    -1  
$EndComp
Wire Wire Line
	1375 2450 1775 2450
Wire Wire Line
	2750 2375 2750 2450
Wire Wire Line
	3725 2775 3875 2775
Wire Wire Line
	3650 3075 3875 3075
Wire Wire Line
	3875 3075 3875 2775
Connection ~ 3875 2775
Wire Wire Line
	3875 2775 3975 2775
Wire Wire Line
	3500 3075 3425 3075
Connection ~ 3425 3075
$Comp
L Connector:TestPoint TP6
U 1 1 5CC8961F
P 3425 3200
F 0 "TP6" V 3425 3388 39  0000 L CNN
F 1 "TestPoint" H 3483 3229 50  0001 L CNN
F 2 "DC_Load_NewBrain:TestPoint_Pad_D1.0mm" H 3625 3200 50  0001 C CNN
F 3 "~" H 3625 3200 50  0001 C CNN
	1    3425 3200
	0    1    1    0   
$EndComp
Wire Wire Line
	3425 3200 3425 3075
$Comp
L dk_Ferrite-Beads-and-Chips:BLM21PG331SN1D FB1
U 1 1 5CC8FFC4
P 1000 3075
F 0 "FB1" H 700 3275 39  0000 C CNN
F 1 "BLM21AG331SN1D" H 900 3225 39  0000 C CNN
F 2 "DC_Load_NewBrain:L_0805_2012Metric_Pad1.15x1.40mm_HandSolder" H 1200 3275 60  0001 L CNN
F 3 "https://www.murata.com/en-us/products/productdata/8796738977822/ENFA0005.pdf" H 1200 3375 60  0001 L CNN
F 4 "490-5988-1-ND" H 1200 3475 60  0001 L CNN "Digi-Key_PN"
F 5 "BLM21PG331SN1D" H 1200 3575 60  0001 L CNN "MPN"
F 6 "Filters" H 1200 3675 60  0001 L CNN "Category"
F 7 "Ferrite Beads and Chips" H 1200 3775 60  0001 L CNN "Family"
F 8 "https://www.murata.com/en-us/products/productdata/8796738977822/ENFA0005.pdf" H 1200 3875 60  0001 L CNN "DK_Datasheet_Link"
F 9 "/product-detail/en/murata-electronics-north-america/BLM21PG331SN1D/490-5988-1-ND/3845188" H 1200 3975 60  0001 L CNN "DK_Detail_Page"
F 10 "FERRITE BEAD 330 OHM 0805 1LN" H 1200 4075 60  0001 L CNN "Description"
F 11 "Murata Electronics North America" H 1200 4175 60  0001 L CNN "Manufacturer"
F 12 "Active" H 1200 4275 60  0001 L CNN "Status"
	1    1000 3075
	1    0    0    -1  
$EndComp
$Comp
L Device:C C16
U 1 1 5CC9044C
P 1300 3225
F 0 "C16" H 1100 3275 39  0000 L CNN
F 1 "100nF" H 1025 3200 39  0000 L CNN
F 2 "DC_Load_NewBrain:C_0805_2012Metric_Pad1.15x1.40mm_HandSolder" H 1338 3075 50  0001 C CNN
F 3 "~" H 1300 3225 50  0001 C CNN
	1    1300 3225
	1    0    0    -1  
$EndComp
$Comp
L Device:C C17
U 1 1 5CC904F4
P 1700 3225
F 0 "C17" H 1500 3275 39  0000 L CNN
F 1 "2.2uF" H 1450 3200 39  0000 L CNN
F 2 "DC_Load_NewBrain:C_0805_2012Metric_Pad1.15x1.40mm_HandSolder" H 1738 3075 50  0001 C CNN
F 3 "~" H 1700 3225 50  0001 C CNN
	1    1700 3225
	1    0    0    -1  
$EndComp
$Comp
L power:GND #PWR022
U 1 1 5CC90C81
P 1300 3475
F 0 "#PWR022" H 1300 3225 50  0001 C CNN
F 1 "GND" H 1300 3350 39  0000 C CNN
F 2 "" H 1300 3475 50  0001 C CNN
F 3 "" H 1300 3475 50  0001 C CNN
	1    1300 3475
	1    0    0    -1  
$EndComp
Wire Wire Line
	1300 3375 1700 3375
Wire Wire Line
	1300 3475 1300 3375
Connection ~ 1300 3375
Wire Wire Line
	2550 3075 1700 3075
Wire Wire Line
	650  2450 525  2450
Wire Wire Line
	525  2450 525  3075
Wire Wire Line
	525  3075 800  3075
Connection ~ 650  2450
Text Label 1125 5375 0    39   ~ 0
SD_MOSI
Text Label 1125 5475 0    39   ~ 0
SD_MISO
Text Label 4525 4075 2    39   ~ 0
SD_SCK
Text Label 1125 5275 0    39   ~ 0
SD_DETECT
Text Label 1125 5175 0    39   ~ 0
SD_PROTECT
$Comp
L Device:Crystal Y1
U 1 1 5CD77A42
P 1100 4575
F 0 "Y1" V 1138 4444 50  0000 R CNN
F 1 "32.768Khz" V 1055 4444 39  0000 R CNN
F 2 "DC_Load_NewBrain:Crystal_SMD_3215-2Pin_3.2x1.5mm" H 1100 4575 50  0001 C CNN
F 3 "~" H 1100 4575 50  0001 C CNN
	1    1100 4575
	0    -1   -1   0   
$EndComp
Wire Wire Line
	1650 4575 1425 4575
Wire Wire Line
	1425 4575 1425 4425
Wire Wire Line
	1425 4425 1100 4425
Wire Wire Line
	1650 4675 1425 4675
Wire Wire Line
	1425 4675 1425 4725
Wire Wire Line
	1425 4725 1100 4725
Text Label 1125 5875 0    39   ~ 0
D+
Text Label 1125 5975 0    39   ~ 0
D-
$Sheet
S 6975 5850 1200 425 
U 5CEB517F
F0 "USB and SDCARD PCB" 39
F1 "usb_sd.sch" 39
$EndSheet
Wire Wire Line
	2750 2450 2500 2450
Wire Wire Line
	2750 2450 2950 2450
Connection ~ 1300 3075
Connection ~ 1700 3075
Wire Wire Line
	1300 3075 1700 3075
Wire Wire Line
	1200 3075 1300 3075
$Comp
L Connector:Conn_ARM_JTAG_SWD_10 J4
U 1 1 5CF2A4F1
P 10275 5575
F 0 "J4" H 9950 6125 50  0000 R CNN
F 1 "Conn_ARM_SWD_10" V 9825 5625 39  0000 R CNN
F 2 "DC_Load_NewBrain:PinSocket_2x05_P1.27mm_Vertical_SMD" H 10275 5575 50  0001 C CNN
F 3 "http://infocenter.arm.com/help/topic/com.arm.doc.ddi0314h/DDI0314H_coresight_components_trm.pdf" V 9925 4325 50  0001 C CNN
	1    10275 5575
	1    0    0    -1  
$EndComp
$Comp
L power:+3V3 #PWR038
U 1 1 5CF2A979
P 10275 4925
F 0 "#PWR038" H 10275 4775 50  0001 C CNN
F 1 "+3V3" H 10290 5098 50  0000 C CNN
F 2 "" H 10275 4925 50  0001 C CNN
F 3 "" H 10275 4925 50  0001 C CNN
	1    10275 4925
	1    0    0    -1  
$EndComp
$Comp
L power:GND #PWR044
U 1 1 5CF2ACE0
P 10275 6250
F 0 "#PWR044" H 10275 6000 50  0001 C CNN
F 1 "GND" H 10280 6077 50  0000 C CNN
F 2 "" H 10275 6250 50  0001 C CNN
F 3 "" H 10275 6250 50  0001 C CNN
	1    10275 6250
	1    0    0    -1  
$EndComp
NoConn ~ 10175 6175
Wire Wire Line
	10775 5575 11100 5575
Text Label 11100 5575 2    39   ~ 0
SWD_DIO
Wire Wire Line
	10775 5475 11100 5475
Text Label 11100 5475 2    39   ~ 0
SWD_CLK
Text Label 1125 4850 0    39   ~ 0
SW_RESET
Wire Wire Line
	1650 4775 1525 4775
Text Label 1125 4175 0    39   ~ 0
SW_BOOT
Text Label 11100 5275 2    39   ~ 0
SW_RESET
Wire Wire Line
	10775 5275 11100 5275
Wire Wire Line
	10275 4925 10275 4975
NoConn ~ 10775 5675
Text Label 11100 5775 2    39   ~ 0
SW_BOOT
Wire Wire Line
	11100 5775 10775 5775
Text Label 1125 4075 0    39   ~ 0
SWD_DIO
Text Label 1125 3775 0    39   ~ 0
SWD_CLK
$Comp
L Device:LED_ALT D5
U 1 1 5CFDDE66
P 700 1600
F 0 "D5" V 725 1800 50  0000 R CNN
F 1 "LED" V 650 1800 50  0000 R CNN
F 2 "DC_Load_NewBrain:LED_0805_2012Metric_Pad1.15x1.40mm_HandSolder" H 700 1600 50  0001 C CNN
F 3 "~" H 700 1600 50  0001 C CNN
	1    700  1600
	0    -1   -1   0   
$EndComp
$Comp
L Device:R R10
U 1 1 5CFDE5CA
P 850 1975
F 0 "R10" V 750 1900 50  0000 L CNN
F 1 "1k" V 850 1925 39  0000 L CNN
F 2 "DC_Load_NewBrain:R_1206_3216Metric_Pad1.42x1.75mm_HandSolder" V 780 1975 50  0001 C CNN
F 3 "~" H 850 1975 50  0001 C CNN
	1    850  1975
	0    -1   -1   0   
$EndComp
Wire Wire Line
	700  1750 700  1975
Wire Wire Line
	1000 1975 1000 1750
Connection ~ 1000 1750
Wire Wire Line
	1000 1750 1175 1750
$Comp
L Device:R R2
U 1 1 5D01A6AB
P 10550 1350
F 0 "R2" V 10450 1350 50  0000 C CNN
F 1 "10k" V 10550 1350 39  0000 C CNN
F 2 "DC_Load_NewBrain:R_0805_2012Metric_Pad1.15x1.40mm_HandSolder" V 10480 1350 50  0001 C CNN
F 3 "~" H 10550 1350 50  0001 C CNN
	1    10550 1350
	-1   0    0    1   
$EndComp
$Comp
L Device:R R7
U 1 1 5D01A75F
P 10550 1775
F 0 "R7" V 10450 1775 50  0000 C CNN
F 1 "15k" V 10550 1775 39  0000 C CNN
F 2 "DC_Load_NewBrain:R_0805_2012Metric_Pad1.15x1.40mm_HandSolder" V 10480 1775 50  0001 C CNN
F 3 "~" H 10550 1775 50  0001 C CNN
	1    10550 1775
	-1   0    0    1   
$EndComp
$Comp
L power:GND #PWR08
U 1 1 5D01AA19
P 10550 1975
F 0 "#PWR08" H 10550 1725 50  0001 C CNN
F 1 "GND" H 10555 1802 50  0000 C CNN
F 2 "" H 10550 1975 50  0001 C CNN
F 3 "" H 10550 1975 50  0001 C CNN
	1    10550 1975
	1    0    0    -1  
$EndComp
Text Label 4625 3775 2    39   ~ 0
VBUS_DETECT_3v3
$Comp
L Device:C C6
U 1 1 5D0A4A59
P 8825 1750
F 0 "C6" H 8940 1788 50  0000 L CNN
F 1 "10nF" H 8940 1705 39  0000 L CNN
F 2 "DC_Load_NewBrain:C_0805_2012Metric_Pad1.15x1.40mm_HandSolder" H 8863 1600 50  0001 C CNN
F 3 "~" H 8825 1750 50  0001 C CNN
	1    8825 1750
	1    0    0    -1  
$EndComp
$Comp
L Device:R R3
U 1 1 5D0A4A60
P 9125 1600
F 0 "R3" V 9050 1600 50  0000 C CNN
F 1 "100" V 9125 1600 39  0000 C CNN
F 2 "DC_Load_NewBrain:R_0805_2012Metric_Pad1.15x1.40mm_HandSolder" V 9055 1600 50  0001 C CNN
F 3 "~" H 9125 1600 50  0001 C CNN
	1    9125 1600
	0    1    1    0   
$EndComp
$Comp
L Device:C C7
U 1 1 5D0AF671
P 9950 1750
F 0 "C7" H 10065 1788 50  0000 L CNN
F 1 "10nF" H 10065 1705 39  0000 L CNN
F 2 "DC_Load_NewBrain:C_0805_2012Metric_Pad1.15x1.40mm_HandSolder" H 9988 1600 50  0001 C CNN
F 3 "~" H 9950 1750 50  0001 C CNN
	1    9950 1750
	1    0    0    -1  
$EndComp
$Comp
L Device:R R4
U 1 1 5D0AF678
P 10250 1600
F 0 "R4" V 10175 1600 50  0000 C CNN
F 1 "100" V 10250 1600 39  0000 C CNN
F 2 "DC_Load_NewBrain:R_0805_2012Metric_Pad1.15x1.40mm_HandSolder" V 10180 1600 50  0001 C CNN
F 3 "~" H 10250 1600 50  0001 C CNN
	1    10250 1600
	0    1    1    0   
$EndComp
$Comp
L Device:R R1
U 1 1 5D0C52EC
P 9400 1350
F 0 "R1" V 9300 1350 50  0000 C CNN
F 1 "10k" V 9400 1350 39  0000 C CNN
F 2 "DC_Load_NewBrain:R_0805_2012Metric_Pad1.15x1.40mm_HandSolder" V 9330 1350 50  0001 C CNN
F 3 "~" H 9400 1350 50  0001 C CNN
	1    9400 1350
	-1   0    0    1   
$EndComp
$Comp
L Device:R R6
U 1 1 5D0C52F3
P 9400 1775
F 0 "R6" V 9300 1775 50  0000 C CNN
F 1 "15k" V 9400 1775 39  0000 C CNN
F 2 "DC_Load_NewBrain:R_0805_2012Metric_Pad1.15x1.40mm_HandSolder" V 9330 1775 50  0001 C CNN
F 3 "~" H 9400 1775 50  0001 C CNN
	1    9400 1775
	-1   0    0    1   
$EndComp
$Comp
L power:GND #PWR07
U 1 1 5D0C52FA
P 9400 1975
F 0 "#PWR07" H 9400 1725 50  0001 C CNN
F 1 "GND" H 9405 1802 50  0000 C CNN
F 2 "" H 9400 1975 50  0001 C CNN
F 3 "" H 9400 1975 50  0001 C CNN
	1    9400 1975
	1    0    0    -1  
$EndComp
$Comp
L Relay:G6K-2 K1
U 1 1 5CB7891F
P 5500 1175
F 0 "K1" H 6130 1213 50  0000 L CNN
F 1 "G6K-2F-Y-DC5 " H 6130 1130 39  0000 L CNN
F 2 "DC_Load_NewBrain:Relay_DPDT_Omron_G6K-2F-Y" H 6150 1125 50  0001 L CNN
F 3 "http://omronfs.omron.com/en_US/ecb/products/pdf/en-g6k.pdf" H 5300 1175 50  0001 C CNN
	1    5500 1175
	1    0    0    -1  
$EndComp
$Comp
L dk_Diodes-Rectifiers-Single:1N4148TA D2
U 1 1 5CB8F2DC
P 4525 1125
F 0 "D2" V 4562 1047 60  0000 R CNN
F 1 "1N4148W" V 4472 1047 39  0000 R CNN
F 2 "DC_Load_NewBrain:SOD-123" H 4725 1325 60  0001 L CNN
F 3 "https://www.fairchildsemi.com/datasheets/1N/1N914.pdf" H 4725 1425 60  0001 L CNN
F 4 "1N4148TACT-ND" H 4725 1525 60  0001 L CNN "Digi-Key_PN"
F 5 "1N4148TA" H 4725 1625 60  0001 L CNN "MPN"
F 6 "Discrete Semiconductor Products" H 4725 1725 60  0001 L CNN "Category"
F 7 "Diodes - Rectifiers - Single" H 4725 1825 60  0001 L CNN "Family"
F 8 "https://www.fairchildsemi.com/datasheets/1N/1N914.pdf" H 4725 1925 60  0001 L CNN "DK_Datasheet_Link"
F 9 "/product-detail/en/on-semiconductor/1N4148TA/1N4148TACT-ND/1532747" H 4725 2025 60  0001 L CNN "DK_Detail_Page"
F 10 "DIODE GEN PURP 100V 200MA DO35" H 4725 2125 60  0001 L CNN "Description"
F 11 "ON Semiconductor" H 4725 2225 60  0001 L CNN "Manufacturer"
F 12 "Active" H 4725 2325 60  0001 L CNN "Status"
	1    4525 1125
	0    -1   -1   0   
$EndComp
Wire Wire Line
	4525 875  4525 925 
Wire Wire Line
	4525 1325 4525 1475
Wire Wire Line
	4525 1475 5100 1475
Wire Wire Line
	1625 1175 1625 1450
Connection ~ 1625 1450
Wire Wire Line
	1625 1450 1375 1450
Wire Wire Line
	5500 1475 5500 1550
Wire Wire Line
	5900 1475 5900 1550
Wire Wire Line
	5900 1550 5700 1550
$Comp
L Device:R R15
U 1 1 5CC6A0B3
P 1425 5975
AR Path="/5CC6A0B3" Ref="R15"  Part="1" 
AR Path="/5CEB517F/5CC6A0B3" Ref="R?"  Part="1" 
F 0 "R15" V 1500 5975 50  0000 C CNN
F 1 "33" V 1425 5975 39  0000 C CNN
F 2 "DC_Load_NewBrain:R_0805_2012Metric_Pad1.15x1.40mm_HandSolder" V 1355 5975 50  0001 C CNN
F 3 "~" H 1425 5975 50  0001 C CNN
	1    1425 5975
	0    1    1    0   
$EndComp
$Comp
L Device:R R14
U 1 1 5CC6A0BA
P 1425 5875
AR Path="/5CC6A0BA" Ref="R14"  Part="1" 
AR Path="/5CEB517F/5CC6A0BA" Ref="R?"  Part="1" 
F 0 "R14" V 1350 5875 50  0000 C CNN
F 1 "33" V 1425 5875 39  0000 C CNN
F 2 "DC_Load_NewBrain:R_0805_2012Metric_Pad1.15x1.40mm_HandSolder" V 1355 5875 50  0001 C CNN
F 3 "~" H 1425 5875 50  0001 C CNN
	1    1425 5875
	0    1    1    0   
$EndComp
Wire Wire Line
	1575 5875 1650 5875
Wire Wire Line
	1575 5975 1650 5975
$Comp
L Connector:TestPoint TP5
U 1 1 5CCAF11F
P 1175 1850
F 0 "TP5" H 1125 2050 39  0000 L CNN
F 1 "TestPoint" H 1233 1879 50  0001 L CNN
F 2 "DC_Load_NewBrain:TestPoint_Pad_D1.0mm" H 1375 1850 50  0001 C CNN
F 3 "~" H 1375 1850 50  0001 C CNN
	1    1175 1850
	-1   0    0    1   
$EndComp
Wire Wire Line
	1175 1850 1175 1750
Connection ~ 1175 1750
Wire Wire Line
	1175 1750 1375 1750
$Comp
L power:GND #PWR010
U 1 1 5CCE0F23
P 5100 2300
F 0 "#PWR010" H 5100 2050 50  0001 C CNN
F 1 "GND" H 5105 2127 50  0000 C CNN
F 2 "" H 5100 2300 50  0001 C CNN
F 3 "" H 5100 2300 50  0001 C CNN
	1    5100 2300
	1    0    0    -1  
$EndComp
$Comp
L Device:Q_NMOS_GSD Q2
U 1 1 5CCE0F29
P 5000 1825
F 0 "Q2" H 5205 1863 50  0000 L CNN
F 1 "NCE2302" H 5205 1780 39  0000 L CNN
F 2 "DC_Load_NewBrain:SOT-23_Handsoldering" H 5200 1925 50  0001 C CNN
F 3 "~" H 5000 1825 50  0001 C CNN
	1    5000 1825
	1    0    0    -1  
$EndComp
$Comp
L Device:R R8
U 1 1 5CCE0F30
P 4550 1825
F 0 "R8" V 4475 1825 50  0000 C CNN
F 1 "100" V 4550 1825 39  0000 C CNN
F 2 "DC_Load_NewBrain:R_0805_2012Metric_Pad1.15x1.40mm_HandSolder" V 4480 1825 50  0001 C CNN
F 3 "~" H 4550 1825 50  0001 C CNN
	1    4550 1825
	0    1    1    0   
$EndComp
$Comp
L Device:R R11
U 1 1 5CCE0F37
P 4750 2100
F 0 "R11" V 4675 2025 50  0000 L CNN
F 1 "100k" V 4750 2025 39  0000 L CNN
F 2 "DC_Load_NewBrain:R_0805_2012Metric_Pad1.15x1.40mm_HandSolder" V 4680 2100 50  0001 C CNN
F 3 "~" H 4750 2100 50  0001 C CNN
	1    4750 2100
	1    0    0    -1  
$EndComp
Wire Wire Line
	5100 1475 5100 1625
Wire Wire Line
	5100 2025 5100 2250
Wire Wire Line
	4800 1825 4750 1825
Wire Wire Line
	4750 1950 4750 1825
Connection ~ 4750 1825
Wire Wire Line
	4750 1825 4700 1825
Wire Wire Line
	4750 2250 5100 2250
Connection ~ 5100 2250
Wire Wire Line
	5100 2250 5100 2300
Connection ~ 5100 1475
NoConn ~ 5800 875 
$Comp
L Monitor_Voltaje:MAX708 U1
U 1 1 5CC3230A
P 3900 1225
F 0 "U1" H 3900 1550 50  0000 C CNN
F 1 "MAX708ESA-TG" H 3900 1475 39  0000 C CNN
F 2 "DC_Load_NewBrain:SOIC-8_W3.9mm" H 3950 1125 50  0001 C CNN
F 3 "" H 3950 1125 50  0001 C CNN
	1    3900 1225
	1    0    0    -1  
$EndComp
$Comp
L Device:C C2
U 1 1 5CC3F22D
P 3200 1275
F 0 "C2" H 3315 1321 50  0000 L CNN
F 1 "100nF" H 3315 1230 39  0000 L CNN
F 2 "DC_Load_NewBrain:C_0805_2012Metric_Pad1.15x1.40mm_HandSolder" H 3238 1125 50  0001 C CNN
F 3 "~" H 3200 1275 50  0001 C CNN
	1    3200 1275
	1    0    0    -1  
$EndComp
$Comp
L power:GND #PWR04
U 1 1 5CC4BCBF
P 3525 1450
F 0 "#PWR04" H 3525 1200 50  0001 C CNN
F 1 "GND" H 3530 1277 50  0000 C CNN
F 2 "" H 3525 1450 50  0001 C CNN
F 3 "" H 3525 1450 50  0001 C CNN
	1    3525 1450
	1    0    0    -1  
$EndComp
Wire Wire Line
	3600 1275 3525 1275
Wire Wire Line
	3525 1275 3525 1375
Wire Wire Line
	3200 1425 3525 1425
Connection ~ 3525 1425
Wire Wire Line
	3525 1425 3525 1450
Wire Wire Line
	3600 1175 3525 1175
Wire Wire Line
	3525 1175 3525 1125
Wire Wire Line
	3525 1125 3200 1125
NoConn ~ 3600 1075
Wire Wire Line
	3600 1375 3525 1375
Connection ~ 3525 1375
Wire Wire Line
	3525 1375 3525 1425
NoConn ~ 4200 1375
Wire Wire Line
	4200 1175 4400 1175
Wire Wire Line
	4400 1175 4400 1825
$Comp
L Connector:TestPoint TP2
U 1 1 5CD073CD
P 4250 1025
F 0 "TP2" H 4308 1099 50  0000 L CNN
F 1 "TestPoint" H 4308 1054 50  0001 L CNN
F 2 "DC_Load_NewBrain:TestPoint_Pad_D1.0mm" H 4450 1025 50  0001 C CNN
F 3 "~" H 4450 1025 50  0001 C CNN
	1    4250 1025
	1    0    0    -1  
$EndComp
Wire Wire Line
	4200 1075 4250 1075
Wire Wire Line
	4250 1075 4250 1025
Wire Wire Line
	2425 1450 2600 1450
Wire Wire Line
	2600 1450 2600 1275
Connection ~ 2425 1450
Connection ~ 2600 1450
Wire Wire Line
	2700 700  2550 700 
Connection ~ 2550 700 
Wire Wire Line
	5400 775  5400 875 
$Comp
L Connector_Generic:Conn_01x30 J2
U 1 1 5CD93365
P 5550 4375
F 0 "J2" V 5650 4375 50  0000 L CNN
F 1 "FPC/FFC" V 5650 3950 50  0000 L CNN
F 2 "DC_Load_NewBrain:Omron_XF2M-3015_1x30_P0.50mm_Horizontal" H 5550 4375 50  0001 C CNN
F 3 "~" H 5550 4375 50  0001 C CNN
	1    5550 4375
	-1   0    0    1   
$EndComp
$Comp
L power:+5V #PWR042
U 1 1 5CD9336C
P 6125 5775
F 0 "#PWR042" H 6125 5625 50  0001 C CNN
F 1 "+5V" V 6140 5903 50  0000 L CNN
F 2 "" H 6125 5775 50  0001 C CNN
F 3 "" H 6125 5775 50  0001 C CNN
	1    6125 5775
	0    1    1    0   
$EndComp
$Comp
L power:+5V #PWR015
U 1 1 5CD93372
P 6125 2875
F 0 "#PWR015" H 6125 2725 50  0001 C CNN
F 1 "+5V" V 6140 3003 50  0000 L CNN
F 2 "" H 6125 2875 50  0001 C CNN
F 3 "" H 6125 2875 50  0001 C CNN
	1    6125 2875
	0    1    1    0   
$EndComp
$Comp
L power:GND #PWR041
U 1 1 5CD93378
P 6125 5675
F 0 "#PWR041" H 6125 5425 50  0001 C CNN
F 1 "GND" V 6130 5547 50  0000 R CNN
F 2 "" H 6125 5675 50  0001 C CNN
F 3 "" H 6125 5675 50  0001 C CNN
	1    6125 5675
	0    -1   -1   0   
$EndComp
$Comp
L power:GND #PWR017
U 1 1 5CD933A4
P 6125 2975
F 0 "#PWR017" H 6125 2725 50  0001 C CNN
F 1 "GND" V 6130 2847 50  0000 R CNN
F 2 "" H 6125 2975 50  0001 C CNN
F 3 "" H 6125 2975 50  0001 C CNN
	1    6125 2975
	0    -1   -1   0   
$EndComp
$Comp
L power:GND #PWR034
U 1 1 5CD933BB
P 6125 4575
F 0 "#PWR034" H 6125 4325 50  0001 C CNN
F 1 "GND" V 6130 4447 50  0000 R CNN
F 2 "" H 6125 4575 50  0001 C CNN
F 3 "" H 6125 4575 50  0001 C CNN
	1    6125 4575
	0    -1   -1   0   
$EndComp
$Comp
L power:GND #PWR033
U 1 1 5CD933C1
P 6125 4375
F 0 "#PWR033" H 6125 4125 50  0001 C CNN
F 1 "GND" V 6130 4247 50  0000 R CNN
F 2 "" H 6125 4375 50  0001 C CNN
F 3 "" H 6125 4375 50  0001 C CNN
	1    6125 4375
	0    -1   -1   0   
$EndComp
$Comp
L power:GND #PWR031
U 1 1 5CD933C7
P 6125 4175
F 0 "#PWR031" H 6125 3925 50  0001 C CNN
F 1 "GND" V 6130 4047 50  0000 R CNN
F 2 "" H 6125 4175 50  0001 C CNN
F 3 "" H 6125 4175 50  0001 C CNN
	1    6125 4175
	0    -1   -1   0   
$EndComp
Wire Wire Line
	5750 2875 6125 2875
Wire Wire Line
	5750 2975 6125 2975
Wire Wire Line
	5750 3075 6125 3075
Wire Wire Line
	5750 4075 6125 4075
Wire Wire Line
	5750 4175 6125 4175
Wire Wire Line
	5750 4275 6125 4275
Wire Wire Line
	5750 4375 6125 4375
Wire Wire Line
	5750 4475 6125 4475
Wire Wire Line
	5750 4575 6125 4575
Wire Wire Line
	5750 4675 6125 4675
Wire Wire Line
	5750 4775 6125 4775
Wire Wire Line
	5750 4875 6125 4875
Wire Wire Line
	5750 4975 6125 4975
Wire Wire Line
	5750 5075 6125 5075
Wire Wire Line
	5750 5175 6125 5175
Wire Wire Line
	5750 5275 6125 5275
Wire Wire Line
	5750 5375 6125 5375
Wire Wire Line
	5750 5475 6125 5475
Wire Wire Line
	5750 5575 6125 5575
Wire Wire Line
	5750 5675 6125 5675
Wire Wire Line
	5750 5775 6125 5775
Text Label 6125 3075 2    39   ~ 0
FAN
Text Label 6125 4075 2    39   ~ 0
SCL
Text Label 6125 4275 2    39   ~ 0
SDA
Text Label 6125 4475 2    39   ~ 0
TEMP1
Text Label 6125 4675 2    39   ~ 0
TEMP2
$Comp
L power:GND #PWR036
U 1 1 5CE2AA92
P 6125 4775
F 0 "#PWR036" H 6125 4525 50  0001 C CNN
F 1 "GND" V 6130 4647 50  0000 R CNN
F 2 "" H 6125 4775 50  0001 C CNN
F 3 "" H 6125 4775 50  0001 C CNN
	1    6125 4775
	0    -1   1    0   
$EndComp
Text Label 6125 4875 2    39   ~ 0
SW2
Text Label 6125 4975 2    39   ~ 0
SW3
$Comp
L power:+5V #PWR039
U 1 1 5CE2ABF7
P 6125 5075
F 0 "#PWR039" H 6125 4925 50  0001 C CNN
F 1 "+5V" V 6140 5203 50  0000 L CNN
F 2 "" H 6125 5075 50  0001 C CNN
F 3 "" H 6125 5075 50  0001 C CNN
	1    6125 5075
	0    1    -1   0   
$EndComp
Text Label 6125 5175 2    39   ~ 0
RLY_ON
Text Label 6125 5275 2    39   ~ 0
ENC_B
Text Label 6125 5375 2    39   ~ 0
ENC_A
$Comp
L power:GND #PWR040
U 1 1 5CE2ADD0
P 6125 5475
F 0 "#PWR040" H 6125 5225 50  0001 C CNN
F 1 "GND" V 6130 5347 50  0000 R CNN
F 2 "" H 6125 5475 50  0001 C CNN
F 3 "" H 6125 5475 50  0001 C CNN
	1    6125 5475
	0    -1   1    0   
$EndComp
Text Label 6125 5575 2    39   ~ 0
TRIGGER
Text Label 9400 1150 2    39   ~ 0
TEMP1
Text Label 10550 1150 2    39   ~ 0
TEMP2
Wire Wire Line
	9400 1150 9400 1200
Wire Wire Line
	10550 1150 10550 1200
Wire Wire Line
	8825 1900 8825 1975
Wire Wire Line
	9400 1925 9400 1975
Wire Wire Line
	8975 1600 8825 1600
Wire Wire Line
	10100 1600 9950 1600
Wire Wire Line
	9950 1900 9950 1975
Wire Wire Line
	10550 1925 10550 1975
Wire Wire Line
	9400 1500 9400 1600
Wire Wire Line
	10550 1500 10550 1600
Connection ~ 10550 1975
Wire Wire Line
	9950 1975 10550 1975
Wire Wire Line
	10400 1600 10550 1600
Connection ~ 10550 1600
Wire Wire Line
	10550 1600 10550 1625
Wire Wire Line
	9275 1600 9400 1600
Connection ~ 9400 1600
Wire Wire Line
	9400 1600 9400 1625
Wire Wire Line
	8825 1975 9400 1975
Connection ~ 9400 1975
Text Label 8775 1600 2    39   ~ 0
TEMP1_3V
Text Label 9900 1600 2    39   ~ 0
TEMP2_3V
Wire Wire Line
	9950 1600 9900 1600
Connection ~ 9950 1600
Wire Wire Line
	8825 1600 8775 1600
Connection ~ 8825 1600
Text Label 6100 800  0    50   ~ 0
vBat_DETECT
$Comp
L Device:R R13
U 1 1 5D4C3730
P 875 5575
F 0 "R13" V 950 5575 50  0000 C CNN
F 1 "1k" V 875 5575 39  0000 C CNN
F 2 "DC_Load_NewBrain:R_1206_3216Metric_Pad1.42x1.75mm_HandSolder" V 805 5575 50  0001 C CNN
F 3 "~" H 875 5575 50  0001 C CNN
	1    875  5575
	0    -1   -1   0   
$EndComp
Text Label 675  5575 1    39   ~ 0
vBat_DETECT
$Comp
L Device:C C18
U 1 1 5D4EE505
P 675 5725
F 0 "C18" H 790 5763 50  0000 L CNN
F 1 "1uF" H 790 5680 39  0000 L CNN
F 2 "DC_Load_NewBrain:C_0805_2012Metric_Pad1.15x1.40mm_HandSolder" H 713 5575 50  0001 C CNN
F 3 "~" H 675 5725 50  0001 C CNN
	1    675  5725
	1    0    0    -1  
$EndComp
$Comp
L power:GND #PWR043
U 1 1 5D5038A6
P 675 5925
F 0 "#PWR043" H 675 5675 50  0001 C CNN
F 1 "GND" H 680 5752 50  0000 C CNN
F 2 "" H 675 5925 50  0001 C CNN
F 3 "" H 675 5925 50  0001 C CNN
	1    675  5925
	1    0    0    -1  
$EndComp
Wire Wire Line
	675  5875 675  5925
Wire Wire Line
	675  5575 725  5575
Text Label 1125 5075 0    39   ~ 0
SDA_3v3
Text Label 1125 4975 0    39   ~ 0
SCL_3v3
$Comp
L power:GND #PWR026
U 1 1 5CE2A5ED
P 6125 3975
F 0 "#PWR026" H 6125 3725 50  0001 C CNN
F 1 "GND" V 6130 3847 47  0000 R CNN
F 2 "" H 6125 3975 50  0001 C CNN
F 3 "" H 6125 3975 50  0001 C CNN
	1    6125 3975
	0    -1   1    0   
$EndComp
Connection ~ 2750 7475
Wire Wire Line
	3825 6975 4050 6975
Wire Wire Line
	2750 7475 2950 7475
Wire Wire Line
	3050 7475 2950 7475
Connection ~ 2950 7475
$Comp
L MCU_NXP_Kinetis:MKL27Z64VLH4 U7
U 1 1 5CB0A129
P 2850 5275
F 0 "U7" H 1900 3200 50  0000 C CNN
F 1 "MKL27Z64VLH4" H 3575 3200 50  0000 C CNN
F 2 "DC_Load_NewBrain:LQFP-64_10x10mm_P0.5mm" H 3100 3250 50  0001 L TNN
F 3 "http://www.nxp.com/docs/en/data-sheet/KL27P64M48SF2.pdf" H 3150 3075 50  0001 L BNN
	1    2850 5275
	1    0    0    -1  
$EndComp
Text Label 4525 3875 2    39   ~ 0
TEMP1_3V
Text Label 4525 4175 2    39   ~ 0
SD_CS
Text Label 4525 3975 2    39   ~ 0
TEMP2_3V
Text Label 4525 4275 2    39   ~ 0
ENC_B_3v3
Text Label 4525 4375 2    39   ~ 0
ENC_A_3v3
Text Label 4525 4475 2    39   ~ 0
TRIGGER_3v3
Text Label 4525 4775 2    39   ~ 0
RLY_ON_3v3
Text Label 1125 4275 0    39   ~ 0
SW2
Text Label 1125 4375 0    39   ~ 0
SW3
Text Label 6800 1650 0    39   ~ 0
BUZZER
Wire Wire Line
	7025 1650 6800 1650
Text Label 4525 4575 2    39   ~ 0
BUZZER
Text Label 4525 4675 2    39   ~ 0
FAN_3v3
Wire Wire Line
	4525 4475 4050 4475
Wire Wire Line
	4525 4775 4050 4775
Wire Wire Line
	4050 4575 4525 4575
Wire Wire Line
	4050 4675 4525 4675
Wire Wire Line
	4050 4375 4525 4375
Wire Wire Line
	4050 4275 4525 4275
Wire Wire Line
	4050 4175 4525 4175
Wire Wire Line
	4050 4075 4525 4075
Wire Wire Line
	4050 3975 4525 3975
Wire Wire Line
	4050 3875 4525 3875
NoConn ~ 1650 4475
Text Label 7375 3075 2    39   ~ 0
SD_PROTECT
Text Label 7375 3175 2    39   ~ 0
SD_DETECT
Text Label 7375 3375 2    39   ~ 0
SD_MOSI
Text Label 7375 3775 2    39   ~ 0
SD_SCK
Text Label 7375 3975 2    39   ~ 0
SD_CS
Text Label 7375 4375 2    39   ~ 0
D+
$Comp
L Connector_Generic:Conn_01x20 J1
U 1 1 5D106989
P 6750 3875
F 0 "J1" V 6850 3875 50  0000 C CNN
F 1 "FPC/FFC" V 6850 3600 50  0000 C CNN
F 2 "DC_Load_NewBrain:TE_2-84952-0_1x20-1MP_P1.0mm_Horizontal" H 6750 3875 50  0001 C CNN
F 3 "~" H 6750 3875 50  0001 C CNN
	1    6750 3875
	-1   0    0    1   
$EndComp
$Comp
L power:GND #PWR019
U 1 1 5D242366
P 7375 3275
F 0 "#PWR019" H 7375 3025 50  0001 C CNN
F 1 "GND" V 7375 3075 50  0000 C CNN
F 2 "" H 7375 3275 50  0001 C CNN
F 3 "" H 7375 3275 50  0001 C CNN
	1    7375 3275
	0    -1   -1   0   
$EndComp
$Comp
L power:GND #PWR018
U 1 1 5D242469
P 7375 2975
F 0 "#PWR018" H 7375 2725 50  0001 C CNN
F 1 "GND" V 7375 2775 50  0000 C CNN
F 2 "" H 7375 2975 50  0001 C CNN
F 3 "" H 7375 2975 50  0001 C CNN
	1    7375 2975
	0    -1   -1   0   
$EndComp
$Comp
L power:VBUS #PWR016
U 1 1 5D2424F0
P 7375 2875
F 0 "#PWR016" H 7375 2725 50  0001 C CNN
F 1 "VBUS" V 7375 3100 50  0000 C CNN
F 2 "" H 7375 2875 50  0001 C CNN
F 3 "" H 7375 2875 50  0001 C CNN
	1    7375 2875
	0    1    1    0   
$EndComp
$Comp
L power:GND #PWR023
U 1 1 5D2429E2
P 7375 3475
F 0 "#PWR023" H 7375 3225 50  0001 C CNN
F 1 "GND" V 7375 3275 50  0000 C CNN
F 2 "" H 7375 3475 50  0001 C CNN
F 3 "" H 7375 3475 50  0001 C CNN
	1    7375 3475
	0    -1   -1   0   
$EndComp
Text Label 7375 3575 2    39   ~ 0
SD_MISO
$Comp
L power:GND #PWR024
U 1 1 5D242BDF
P 7375 3675
F 0 "#PWR024" H 7375 3425 50  0001 C CNN
F 1 "GND" V 7375 3475 50  0000 C CNN
F 2 "" H 7375 3675 50  0001 C CNN
F 3 "" H 7375 3675 50  0001 C CNN
	1    7375 3675
	0    -1   -1   0   
$EndComp
$Comp
L power:GND #PWR025
U 1 1 5D242E58
P 7375 3875
F 0 "#PWR025" H 7375 3625 50  0001 C CNN
F 1 "GND" V 7375 3675 50  0000 C CNN
F 2 "" H 7375 3875 50  0001 C CNN
F 3 "" H 7375 3875 50  0001 C CNN
	1    7375 3875
	0    -1   -1   0   
$EndComp
$Comp
L power:GND #PWR028
U 1 1 5D2430D1
P 7375 4075
F 0 "#PWR028" H 7375 3825 50  0001 C CNN
F 1 "GND" V 7375 3875 50  0000 C CNN
F 2 "" H 7375 4075 50  0001 C CNN
F 3 "" H 7375 4075 50  0001 C CNN
	1    7375 4075
	0    -1   -1   0   
$EndComp
Text Label 7375 4175 2    39   ~ 0
D-
$Comp
L power:GND #PWR032
U 1 1 5D24344D
P 7375 4275
F 0 "#PWR032" H 7375 4025 50  0001 C CNN
F 1 "GND" V 7375 4075 50  0000 C CNN
F 2 "" H 7375 4275 50  0001 C CNN
F 3 "" H 7375 4275 50  0001 C CNN
	1    7375 4275
	0    -1   -1   0   
$EndComp
$Comp
L power:+3V3 #PWR037
U 1 1 5D243AB1
P 7375 4775
F 0 "#PWR037" H 7375 4625 50  0001 C CNN
F 1 "+3V3" V 7375 4975 50  0000 C CNN
F 2 "" H 7375 4775 50  0001 C CNN
F 3 "" H 7375 4775 50  0001 C CNN
	1    7375 4775
	0    1    1    0   
$EndComp
$Comp
L power:GND #PWR035
U 1 1 5D244058
P 7375 4675
F 0 "#PWR035" H 7375 4425 50  0001 C CNN
F 1 "GND" V 7375 4475 50  0000 C CNN
F 2 "" H 7375 4675 50  0001 C CNN
F 3 "" H 7375 4675 50  0001 C CNN
	1    7375 4675
	0    -1   -1   0   
$EndComp
$Sheet
S 8300 5850 1100 425 
U 5D283494
F0 "DC Load Shield PCB" 39
F1 "dc_load_shield.sch" 39
$EndSheet
Wire Wire Line
	6950 2875 7375 2875
Wire Wire Line
	6950 2975 7375 2975
Wire Wire Line
	6950 3075 7375 3075
Wire Wire Line
	6950 3175 7375 3175
Wire Wire Line
	6950 3275 7375 3275
Wire Wire Line
	6950 3375 7375 3375
Wire Wire Line
	6950 3475 7375 3475
Wire Wire Line
	6950 3575 7375 3575
Wire Wire Line
	6950 3675 7375 3675
Wire Wire Line
	6950 3775 7375 3775
Wire Wire Line
	6950 3875 7375 3875
Wire Wire Line
	6950 3975 7375 3975
Wire Wire Line
	6950 4075 7375 4075
Wire Wire Line
	6950 4175 7375 4175
Wire Wire Line
	6950 4275 7375 4275
Wire Wire Line
	6950 4375 7375 4375
Wire Wire Line
	6950 4475 7375 4475
Wire Wire Line
	6950 4575 7375 4575
Wire Wire Line
	6950 4675 7375 4675
Wire Wire Line
	6950 4775 7375 4775
Wire Wire Line
	5750 3975 6125 3975
$Comp
L Level_Shifters:SGM4553 U3
U 1 1 5D35915A
P 8550 3200
AR Path="/5D35915A" Ref="U3"  Part="1" 
AR Path="/5CEB517F/5D35915A" Ref="U?"  Part="1" 
F 0 "U3" H 8550 3525 50  0000 C CNN
F 1 "SGM4553" H 8550 3434 50  0000 C CNN
F 2 "DC_Load_NewBrain:SOT-23-8_Handsoldering" H 8550 3200 50  0001 C CNN
F 3 "" H 8550 3200 50  0001 C CNN
	1    8550 3200
	1    0    0    -1  
$EndComp
Wire Wire Line
	8850 3100 8950 3100
Wire Wire Line
	8150 3100 8250 3100
$Comp
L power:GND #PWR020
U 1 1 5D35916C
P 8950 3400
AR Path="/5D35916C" Ref="#PWR020"  Part="1" 
AR Path="/5CEB517F/5D35916C" Ref="#PWR?"  Part="1" 
F 0 "#PWR020" H 8950 3150 50  0001 C CNN
F 1 "GND" H 9150 3300 50  0000 R CNN
F 2 "" H 8950 3400 50  0001 C CNN
F 3 "" H 8950 3400 50  0001 C CNN
	1    8950 3400
	-1   0    0    -1  
$EndComp
Wire Wire Line
	8850 3400 8950 3400
Wire Wire Line
	8250 3400 8150 3400
Text Label 8150 3200 2    39   ~ 0
SDA
Text Label 8150 3300 2    39   ~ 0
SCL
Text Label 8950 3200 0    39   ~ 0
SDA_3v3
Text Label 8950 3300 0    39   ~ 0
SCL_3v3
Wire Wire Line
	8150 3200 8250 3200
Wire Wire Line
	8150 3300 8250 3300
Wire Wire Line
	8850 3200 8950 3200
Wire Wire Line
	8850 3300 8950 3300
$Comp
L Level_Shifters:SGM4553 U4
U 1 1 5D359182
P 10225 3200
AR Path="/5D359182" Ref="U4"  Part="1" 
AR Path="/5CEB517F/5D359182" Ref="U?"  Part="1" 
F 0 "U4" H 10225 3525 50  0000 C CNN
F 1 "SGM4553" H 10225 3434 50  0000 C CNN
F 2 "DC_Load_NewBrain:SOT-23-8_Handsoldering" H 10225 3200 50  0001 C CNN
F 3 "" H 10225 3200 50  0001 C CNN
	1    10225 3200
	1    0    0    -1  
$EndComp
Wire Wire Line
	10525 3100 10625 3100
Wire Wire Line
	9825 3100 9925 3100
$Comp
L power:GND #PWR021
U 1 1 5D359194
P 10625 3400
AR Path="/5D359194" Ref="#PWR021"  Part="1" 
AR Path="/5CEB517F/5D359194" Ref="#PWR?"  Part="1" 
F 0 "#PWR021" H 10625 3150 50  0001 C CNN
F 1 "GND" H 10825 3300 50  0000 R CNN
F 2 "" H 10625 3400 50  0001 C CNN
F 3 "" H 10625 3400 50  0001 C CNN
	1    10625 3400
	-1   0    0    -1  
$EndComp
Wire Wire Line
	10525 3400 10625 3400
Wire Wire Line
	9925 3400 9825 3400
Text Label 9825 3200 2    39   ~ 0
RLY_ON
Text Label 9825 3300 2    39   ~ 0
FAN
$Comp
L Level_Shifters:SGM4553 U6
U 1 1 5D3591A4
P 8550 3950
AR Path="/5D3591A4" Ref="U6"  Part="1" 
AR Path="/5CEB517F/5D3591A4" Ref="U?"  Part="1" 
F 0 "U6" H 8550 4275 50  0000 C CNN
F 1 "SGM4553" H 8550 4184 50  0000 C CNN
F 2 "DC_Load_NewBrain:SOT-23-8_Handsoldering" H 8550 3950 50  0001 C CNN
F 3 "" H 8550 3950 50  0001 C CNN
	1    8550 3950
	1    0    0    -1  
$EndComp
Wire Wire Line
	8850 3850 8950 3850
Wire Wire Line
	8150 3850 8250 3850
$Comp
L power:GND #PWR030
U 1 1 5D3591B6
P 8950 4150
AR Path="/5D3591B6" Ref="#PWR030"  Part="1" 
AR Path="/5CEB517F/5D3591B6" Ref="#PWR?"  Part="1" 
F 0 "#PWR030" H 8950 3900 50  0001 C CNN
F 1 "GND" H 9150 4050 50  0000 R CNN
F 2 "" H 8950 4150 50  0001 C CNN
F 3 "" H 8950 4150 50  0001 C CNN
	1    8950 4150
	-1   0    0    -1  
$EndComp
Wire Wire Line
	8850 4150 8950 4150
Wire Wire Line
	8250 4150 8150 4150
Text Label 8150 3950 2    39   ~ 0
ENC_A
Text Label 8150 4050 2    39   ~ 0
ENC_B
$Comp
L Level_Shifters:SGM4553 U5
U 1 1 5D3591C6
P 10225 3925
AR Path="/5D3591C6" Ref="U5"  Part="1" 
AR Path="/5CEB517F/5D3591C6" Ref="U?"  Part="1" 
F 0 "U5" H 10225 4250 50  0000 C CNN
F 1 "SGM4553" H 10225 4159 50  0000 C CNN
F 2 "DC_Load_NewBrain:SOT-23-8_Handsoldering" H 10225 3925 50  0001 C CNN
F 3 "" H 10225 3925 50  0001 C CNN
	1    10225 3925
	1    0    0    -1  
$EndComp
Wire Wire Line
	10525 3825 10625 3825
Wire Wire Line
	9825 3825 9925 3825
$Comp
L power:GND #PWR029
U 1 1 5D3591D8
P 10625 4125
AR Path="/5D3591D8" Ref="#PWR029"  Part="1" 
AR Path="/5CEB517F/5D3591D8" Ref="#PWR?"  Part="1" 
F 0 "#PWR029" H 10625 3875 50  0001 C CNN
F 1 "GND" H 10825 4025 50  0000 R CNN
F 2 "" H 10625 4125 50  0001 C CNN
F 3 "" H 10625 4125 50  0001 C CNN
	1    10625 4125
	-1   0    0    -1  
$EndComp
Wire Wire Line
	10525 4125 10625 4125
Wire Wire Line
	9925 4125 9825 4125
Text Label 9825 3925 2    39   ~ 0
TRIGGER
Text Label 10625 4025 0    39   ~ 0
VBUS_DETECT_3v3
Text Label 10625 3925 0    39   ~ 0
TRIGGER_3v3
Text Label 8950 4050 0    39   ~ 0
ENC_B_3v3
Text Label 8950 3950 0    39   ~ 0
ENC_A_3v3
Text Label 10625 3200 0    39   ~ 0
RLY_ON_3v3
Text Label 10625 3300 0    39   ~ 0
FAN_3v3
Wire Wire Line
	9825 3200 9925 3200
Wire Wire Line
	9825 3300 9925 3300
Wire Wire Line
	10525 3200 10625 3200
Wire Wire Line
	10525 3300 10625 3300
Wire Wire Line
	8150 3950 8250 3950
Wire Wire Line
	8150 4050 8250 4050
Wire Wire Line
	8850 3950 8950 3950
Wire Wire Line
	8850 4050 8950 4050
Wire Wire Line
	9825 3925 9925 3925
Wire Wire Line
	10525 3925 10625 3925
Wire Wire Line
	10525 4025 10625 4025
$Comp
L power:VBUS #PWR027
U 1 1 5D3591F8
P 9450 4025
AR Path="/5D3591F8" Ref="#PWR027"  Part="1" 
AR Path="/5CEB517F/5D3591F8" Ref="#PWR?"  Part="1" 
F 0 "#PWR027" H 9450 3875 50  0001 C CNN
F 1 "VBUS" H 9450 4175 50  0000 C CNN
F 2 "" H 9450 4025 50  0001 C CNN
F 3 "" H 9450 4025 50  0001 C CNN
	1    9450 4025
	1    0    0    -1  
$EndComp
Wire Wire Line
	9450 4025 9925 4025
Wire Wire Line
	1125 4175 1650 4175
Wire Wire Line
	1125 4275 1650 4275
Wire Wire Line
	1125 4375 1650 4375
Wire Wire Line
	1125 4975 1650 4975
Wire Wire Line
	1025 5575 1650 5575
Wire Wire Line
	1125 5475 1650 5475
Wire Wire Line
	1125 5375 1650 5375
Wire Wire Line
	1125 5175 1650 5175
Wire Wire Line
	1125 5275 1650 5275
Wire Wire Line
	1125 5075 1650 5075
Wire Wire Line
	1125 5875 1275 5875
Wire Wire Line
	1125 5975 1275 5975
Wire Wire Line
	1125 4850 1525 4850
Wire Wire Line
	1525 4775 1525 4850
Wire Wire Line
	2950 2775 2950 2450
Connection ~ 2950 2775
Connection ~ 2950 2450
Wire Wire Line
	2950 2450 3125 2450
Wire Notes Line
	500  525  2975 525 
Wire Notes Line
	2975 525  2975 2125
Wire Notes Line
	2975 2125 500  2125
Wire Notes Line
	500  2125 500  525 
Wire Notes Line
	3050 525  6625 525 
Wire Notes Line
	6625 525  6625 2525
Wire Notes Line
	6625 2525 3800 2525
Wire Notes Line
	3800 2525 3800 1675
Wire Notes Line
	3800 1675 3050 1675
Wire Notes Line
	3050 1675 3050 525 
Wire Notes Line
	6700 525  6700 2525
Wire Notes Line
	8250 2525 8250 525 
Wire Notes Line
	6700 525  8250 525 
Wire Notes Line
	6700 2525 8250 2525
Wire Notes Line
	8325 525  10825 525 
Wire Notes Line
	10825 525  10825 2525
Wire Notes Line
	10825 2525 8325 2525
Wire Notes Line
	8325 2525 8325 525 
Wire Notes Line
	11175 4325 7900 4325
Wire Notes Line
	7900 2650 11175 2650
Wire Notes Line
	11175 2650 11175 4325
Wire Notes Line
	7900 2650 7900 4325
Wire Notes Line
	7800 2650 7800 4900
Wire Notes Line
	7800 4900 6525 4900
Wire Notes Line
	6525 4900 6525 5875
Wire Notes Line
	6525 5875 5375 5875
Wire Notes Line
	5375 5875 5375 2650
Wire Notes Line
	5375 2650 7800 2650
Wire Notes Line
	11175 4500 11175 6475
Wire Notes Line
	11175 6475 9675 6475
Wire Notes Line
	9675 6475 9675 4500
Wire Notes Line
	9675 4500 11175 4500
Text Notes 550  650  0    59   ~ 0
POWER
Text Notes 3100 650  0    59   ~ 0
VOLTAGE SUPERVISOR AND BATTERY SWITCH
Text Notes 6750 650  0    59   ~ 0
BUZZER
Text Notes 8375 750  0    59   ~ 0
ADC VOLTAGE DIVIDER (5V TO 3V)\nAND FILTER
Text Notes 7950 2775 0    59   ~ 0
VOLTAGE-LEVEL TRANSLATORS
Text Notes 9725 4625 0    59   ~ 0
DEBUG (SWD CONNECTOR)
Text Notes 5425 2775 0    59   ~ 0
USB, SDCARD AND DC LOAD SHIELD CONNECTORS
Text Notes 7050 6200 0    79   ~ 0
USB AND SDCARD\nPCB
Text Notes 8350 6175 0    79   ~ 0
DC LOAD SHIELD\nPCB
Text Notes 7025 7000 0    50   ~ 0
Autor: JGReyes
Text Notes 7000 6775 0    118  ~ 0
WWW.CIRCUITEANDO.NET
Wire Wire Line
	4250 6375 4050 6375
Wire Wire Line
	4250 6475 4050 6475
Wire Wire Line
	4250 6575 4050 6575
Wire Wire Line
	4250 6675 4050 6675
Wire Wire Line
	4250 6775 4050 6775
Wire Wire Line
	4250 6875 4050 6875
Wire Wire Line
	4250 6975 4050 6975
Wire Wire Line
	4250 7075 4050 7075
Text Label 4250 7075 2    39   ~ 0
KP_1
Text Label 4250 6975 2    39   ~ 0
KP_2
Text Label 4250 6875 2    39   ~ 0
KP_3
Text Label 4250 6775 2    39   ~ 0
KP_4
Text Label 4250 6675 2    39   ~ 0
KP_5
Text Label 4250 6575 2    39   ~ 0
KP_6
Text Label 4250 6475 2    39   ~ 0
KP_7
Text Label 4250 6375 2    39   ~ 0
KP_8
Wire Wire Line
	5750 3175 6125 3175
Wire Wire Line
	5750 3275 6125 3275
Wire Wire Line
	5750 3375 6125 3375
Wire Wire Line
	5750 3475 6125 3475
Wire Wire Line
	5750 3575 6125 3575
Wire Wire Line
	5750 3675 6125 3675
Wire Wire Line
	5750 3775 6125 3775
Wire Wire Line
	5750 3875 6125 3875
Text Label 6125 3875 2    39   ~ 0
KP_1
Text Label 6125 3775 2    39   ~ 0
KP_2
Text Label 6125 3675 2    39   ~ 0
KP_3
Text Label 6125 3575 2    39   ~ 0
KP_4
Text Label 6125 3475 2    39   ~ 0
KP_5
Text Label 6125 3375 2    39   ~ 0
KP_6
Text Label 6125 3275 2    39   ~ 0
KP_7
Text Label 6125 3175 2    39   ~ 0
KP_8
Wire Wire Line
	10275 6175 10275 6250
$Comp
L power:+5VD #PWR0101
U 1 1 5D11C392
P 1625 1175
F 0 "#PWR0101" H 1625 1025 50  0001 C CNN
F 1 "+5VD" H 1625 1325 50  0000 C CNN
F 2 "" H 1625 1175 50  0001 C CNN
F 3 "" H 1625 1175 50  0001 C CNN
	1    1625 1175
	1    0    0    -1  
$EndComp
$Comp
L power:+5VD #PWR0104
U 1 1 5D138CF4
P 3200 1000
F 0 "#PWR0104" H 3200 850 50  0001 C CNN
F 1 "+5VD" H 3200 1150 50  0000 C CNN
F 2 "" H 3200 1000 50  0001 C CNN
F 3 "" H 3200 1000 50  0001 C CNN
	1    3200 1000
	1    0    0    -1  
$EndComp
Wire Wire Line
	3200 1000 3200 1125
Connection ~ 3200 1125
$Comp
L power:+5VD #PWR0106
U 1 1 5D155A56
P 8150 3100
F 0 "#PWR0106" H 8150 2950 50  0001 C CNN
F 1 "+5VD" H 8150 3250 50  0000 C CNN
F 2 "" H 8150 3100 50  0001 C CNN
F 3 "" H 8150 3100 50  0001 C CNN
	1    8150 3100
	1    0    0    -1  
$EndComp
$Comp
L power:+5VD #PWR0107
U 1 1 5D15624B
P 9825 3100
F 0 "#PWR0107" H 9825 2950 50  0001 C CNN
F 1 "+5VD" H 9825 3250 50  0000 C CNN
F 2 "" H 9825 3100 50  0001 C CNN
F 3 "" H 9825 3100 50  0001 C CNN
	1    9825 3100
	1    0    0    -1  
$EndComp
$Comp
L power:+5VD #PWR0108
U 1 1 5D15648D
P 9825 3825
F 0 "#PWR0108" H 9825 3675 50  0001 C CNN
F 1 "+5VD" H 9825 3975 50  0000 C CNN
F 2 "" H 9825 3825 50  0001 C CNN
F 3 "" H 9825 3825 50  0001 C CNN
	1    9825 3825
	1    0    0    -1  
$EndComp
$Comp
L power:+5VD #PWR0109
U 1 1 5D156690
P 8150 3850
F 0 "#PWR0109" H 8150 3700 50  0001 C CNN
F 1 "+5VD" H 8150 4000 50  0000 C CNN
F 2 "" H 8150 3850 50  0001 C CNN
F 3 "" H 8150 3850 50  0001 C CNN
	1    8150 3850
	1    0    0    -1  
$EndComp
$Comp
L power:+BATT #PWR0110
U 1 1 5D156CBD
P 2700 700
F 0 "#PWR0110" H 2700 550 50  0001 C CNN
F 1 "+BATT" H 2725 725 47  0000 L CNN
F 2 "" H 2700 700 50  0001 C CNN
F 3 "" H 2700 700 50  0001 C CNN
	1    2700 700 
	1    0    0    -1  
$EndComp
$Comp
L power:+BATT #PWR0111
U 1 1 5D1C7C58
P 5400 775
F 0 "#PWR0111" H 5400 625 50  0001 C CNN
F 1 "+BATT" H 5250 925 47  0000 L CNN
F 2 "" H 5400 775 50  0001 C CNN
F 3 "" H 5400 775 50  0001 C CNN
	1    5400 775 
	1    0    0    -1  
$EndComp
$Comp
L Alimentacion:+3V3_2 #PWR0112
U 1 1 5D1C876C
P 2800 1450
F 0 "#PWR0112" H 2800 1300 50  0001 C CNN
F 1 "+3V3_2" H 2785 1623 50  0000 C CNN
F 2 "" H 2800 1450 50  0001 C CNN
F 3 "" H 2800 1450 50  0001 C CNN
	1    2800 1450
	1    0    0    -1  
$EndComp
Wire Wire Line
	2600 1450 2800 1450
$Comp
L Alimentacion:+3V3_2 #PWR0113
U 1 1 5D1E571E
P 5600 775
F 0 "#PWR0113" H 5600 625 50  0001 C CNN
F 1 "+3V3_2" H 5625 925 50  0000 C CNN
F 2 "" H 5600 775 50  0001 C CNN
F 3 "" H 5600 775 50  0001 C CNN
	1    5600 775 
	1    0    0    -1  
$EndComp
Wire Wire Line
	5600 775  5600 875 
$Comp
L Alimentacion:+3V3_2 #PWR0114
U 1 1 5D201DF0
P 8950 3100
F 0 "#PWR0114" H 8950 2950 50  0001 C CNN
F 1 "+3V3_2" H 8975 3250 50  0000 C CNN
F 2 "" H 8950 3100 50  0001 C CNN
F 3 "" H 8950 3100 50  0001 C CNN
	1    8950 3100
	-1   0    0    -1  
$EndComp
$Comp
L Alimentacion:+3V3_2 #PWR0115
U 1 1 5D202470
P 10625 3100
F 0 "#PWR0115" H 10625 2950 50  0001 C CNN
F 1 "+3V3_2" H 10650 3250 50  0000 C CNN
F 2 "" H 10625 3100 50  0001 C CNN
F 3 "" H 10625 3100 50  0001 C CNN
	1    10625 3100
	1    0    0    -1  
$EndComp
$Comp
L Alimentacion:+3V3_2 #PWR0116
U 1 1 5D202577
P 10625 3825
F 0 "#PWR0116" H 10625 3675 50  0001 C CNN
F 1 "+3V3_2" H 10650 3975 50  0000 C CNN
F 2 "" H 10625 3825 50  0001 C CNN
F 3 "" H 10625 3825 50  0001 C CNN
	1    10625 3825
	1    0    0    -1  
$EndComp
$Comp
L Alimentacion:+3V3_2 #PWR0117
U 1 1 5D20267E
P 8950 3850
F 0 "#PWR0117" H 8950 3700 50  0001 C CNN
F 1 "+3V3_2" H 8975 4000 50  0000 C CNN
F 2 "" H 8950 3850 50  0001 C CNN
F 3 "" H 8950 3850 50  0001 C CNN
	1    8950 3850
	1    0    0    -1  
$EndComp
$Comp
L Alimentacion:+3V3_3 #PWR0122
U 1 1 5D2CC198
P 6000 775
F 0 "#PWR0122" H 5950 675 39  0001 C CNN
F 1 "+3V3_3" H 6000 925 50  0000 C CNN
F 2 "" H 6000 775 39  0001 C CNN
F 3 "" H 6000 775 39  0001 C CNN
	1    6000 775 
	1    0    0    -1  
$EndComp
Wire Wire Line
	6000 775  6000 800 
$Comp
L Alimentacion:+3V3_3 #PWR0123
U 1 1 5D2E8D18
P 7725 800
F 0 "#PWR0123" H 7675 700 39  0001 C CNN
F 1 "+3V3_3" H 7725 950 50  0000 C CNN
F 2 "" H 7725 800 39  0001 C CNN
F 3 "" H 7725 800 39  0001 C CNN
	1    7725 800 
	1    0    0    -1  
$EndComp
Wire Wire Line
	6100 800  6000 800 
Connection ~ 6000 800 
Wire Wire Line
	6000 800  6000 875 
Wire Wire Line
	5700 1625 5700 1550
Connection ~ 5700 1550
Wire Wire Line
	5700 1550 5500 1550
$Comp
L power:PWR_FLAG #FLG?
U 1 1 5CBC8E5A
P 5700 1550
AR Path="/5D283494/5CBC8E5A" Ref="#FLG?"  Part="1" 
AR Path="/5CBC8E5A" Ref="#FLG0102"  Part="1" 
F 0 "#FLG0102" H 5700 1625 50  0001 C CNN
F 1 "PWR_FLAG" H 5700 1675 20  0000 C CNN
F 2 "" H 5700 1550 50  0001 C CNN
F 3 "~" H 5700 1550 50  0001 C CNN
	1    5700 1550
	1    0    0    -1  
$EndComp
$Comp
L power:PWR_FLAG #FLG?
U 1 1 5CBE6037
P 2125 700
AR Path="/5D283494/5CBE6037" Ref="#FLG?"  Part="1" 
AR Path="/5CBE6037" Ref="#FLG0104"  Part="1" 
F 0 "#FLG0104" H 2125 775 50  0001 C CNN
F 1 "PWR_FLAG" H 2125 825 20  0000 C CNN
F 2 "" H 2125 700 50  0001 C CNN
F 3 "~" H 2125 700 50  0001 C CNN
	1    2125 700 
	1    0    0    -1  
$EndComp
$Comp
L power:PWR_FLAG #FLG?
U 1 1 5CBE6E6C
P 6000 800
AR Path="/5D283494/5CBE6E6C" Ref="#FLG?"  Part="1" 
AR Path="/5CBE6E6C" Ref="#FLG0105"  Part="1" 
F 0 "#FLG0105" H 6000 875 50  0001 C CNN
F 1 "PWR_FLAG" H 6000 925 20  0000 C CNN
F 2 "" H 6000 800 50  0001 C CNN
F 3 "~" H 6000 800 50  0001 C CNN
	1    6000 800 
	0    -1   -1   0   
$EndComp
$Comp
L power:PWR_FLAG #FLG?
U 1 1 5CBE7520
P 1300 3075
AR Path="/5D283494/5CBE7520" Ref="#FLG?"  Part="1" 
AR Path="/5CBE7520" Ref="#FLG0106"  Part="1" 
F 0 "#FLG0106" H 1300 3150 50  0001 C CNN
F 1 "PWR_FLAG" H 1300 3200 20  0000 C CNN
F 2 "" H 1300 3075 50  0001 C CNN
F 3 "~" H 1300 3075 50  0001 C CNN
	1    1300 3075
	1    0    0    -1  
$EndComp
$Comp
L power:PWR_FLAG #FLG?
U 1 1 5CBE7F70
P 3425 2775
AR Path="/5D283494/5CBE7F70" Ref="#FLG?"  Part="1" 
AR Path="/5CBE7F70" Ref="#FLG0107"  Part="1" 
F 0 "#FLG0107" H 3425 2850 50  0001 C CNN
F 1 "PWR_FLAG" H 3425 2900 20  0000 C CNN
F 2 "" H 3425 2775 50  0001 C CNN
F 3 "~" H 3425 2775 50  0001 C CNN
	1    3425 2775
	0    -1   -1   0   
$EndComp
$Comp
L power:PWR_FLAG #FLG?
U 1 1 5CBE852B
P 1375 1450
AR Path="/5D283494/5CBE852B" Ref="#FLG?"  Part="1" 
AR Path="/5CBE852B" Ref="#FLG0108"  Part="1" 
F 0 "#FLG0108" H 1375 1525 50  0001 C CNN
F 1 "PWR_FLAG" H 1375 1575 20  0000 C CNN
F 2 "" H 1375 1450 50  0001 C CNN
F 3 "~" H 1375 1450 50  0001 C CNN
	1    1375 1450
	1    0    0    -1  
$EndComp
Text Notes 9475 1025 0    50   ~ 0
R1, R2, R6 and R7 1% 
$Comp
L Device:C C23
U 1 1 5CCC7B36
P 10850 4975
F 0 "C23" V 10675 4900 39  0000 L CNN
F 1 "100nF" V 10725 4900 39  0000 L CNN
F 2 "DC_Load_NewBrain:C_0805_2012Metric_Pad1.15x1.40mm_HandSolder" H 10888 4825 50  0001 C CNN
F 3 "~" H 10850 4975 50  0001 C CNN
	1    10850 4975
	0    1    1    0   
$EndComp
$Comp
L Device:R R25
U 1 1 5CCD6825
P 875 4075
F 0 "R25" V 775 4075 50  0000 C CNN
F 1 "10k" V 875 4075 39  0000 C CNN
F 2 "DC_Load_NewBrain:R_0805_2012Metric_Pad1.15x1.40mm_HandSolder" V 805 4075 50  0001 C CNN
F 3 "~" H 875 4075 50  0001 C CNN
	1    875  4075
	0    -1   -1   0   
$EndComp
$Comp
L Device:R R24
U 1 1 5CCE9C4B
P 875 3775
F 0 "R24" V 775 3775 50  0000 C CNN
F 1 "10k" V 875 3775 39  0000 C CNN
F 2 "DC_Load_NewBrain:R_0805_2012Metric_Pad1.15x1.40mm_HandSolder" V 805 3775 50  0001 C CNN
F 3 "~" H 875 3775 50  0001 C CNN
	1    875  3775
	0    -1   -1   0   
$EndComp
Wire Wire Line
	10700 4975 10275 4975
Connection ~ 10275 4975
$Comp
L power:GND #PWR0124
U 1 1 5CD12828
P 11025 4975
F 0 "#PWR0124" H 11025 4725 50  0001 C CNN
F 1 "GND" H 11025 4825 39  0000 C CNN
F 2 "" H 11025 4975 50  0001 C CNN
F 3 "" H 11025 4975 50  0001 C CNN
	1    11025 4975
	1    0    0    -1  
$EndComp
Wire Wire Line
	11025 4975 11000 4975
$Comp
L power:GND #PWR0125
U 1 1 5CD3C9D7
P 650 3775
F 0 "#PWR0125" H 650 3525 50  0001 C CNN
F 1 "GND" H 650 3650 39  0000 C CNN
F 2 "" H 650 3775 50  0001 C CNN
F 3 "" H 650 3775 50  0001 C CNN
	1    650  3775
	1    0    0    -1  
$EndComp
$Comp
L power:+3V3 #PWR0126
U 1 1 5CD410DE
P 650 4075
F 0 "#PWR0126" H 650 3925 50  0001 C CNN
F 1 "+3V3" H 650 4025 39  0000 C CNN
F 2 "" H 650 4075 50  0001 C CNN
F 3 "" H 650 4075 50  0001 C CNN
	1    650  4075
	1    0    0    -1  
$EndComp
Wire Wire Line
	1025 3775 1650 3775
Wire Wire Line
	725  3775 650  3775
Wire Wire Line
	1025 4075 1650 4075
Wire Wire Line
	725  4075 650  4075
NoConn ~ 4050 5075
NoConn ~ 4050 5175
NoConn ~ 4050 5375
NoConn ~ 4050 5475
NoConn ~ 4050 5575
NoConn ~ 4050 5675
NoConn ~ 4050 5775
NoConn ~ 4050 5975
NoConn ~ 4050 6075
NoConn ~ 4050 6175
NoConn ~ 4050 6275
NoConn ~ 4050 4875
NoConn ~ 1650 3975
NoConn ~ 1650 5675
$Comp
L Connector_Generic:Conn_02x02_Odd_Even J?
U 1 1 5CCC8DFE
P 5800 6350
AR Path="/5CEB517F/5CCC8DFE" Ref="J?"  Part="1" 
AR Path="/5CCC8DFE" Ref="J10"  Part="1" 
F 0 "J10" H 5850 6475 50  0000 C CNN
F 1 "Conn_02x02_Odd_Even" H 5850 6476 50  0001 C CNN
F 2 "DC_Load_NewBrain:PinHeader_2x02_P2.54mm_Vertical_SMD" H 5800 6350 50  0001 C CNN
F 3 "~" H 5800 6350 50  0001 C CNN
	1    5800 6350
	1    0    0    -1  
$EndComp
Text Label 6175 6350 0    39   ~ 0
SW_RESET
Text Label 6175 6450 0    39   ~ 0
SW_BOOT
$Comp
L power:+3V3 #PWR081
U 1 1 5CCE238C
P 5500 6350
F 0 "#PWR081" H 5500 6200 50  0001 C CNN
F 1 "+3V3" H 5500 6500 39  0000 C CNN
F 2 "" H 5500 6350 50  0001 C CNN
F 3 "" H 5500 6350 50  0001 C CNN
	1    5500 6350
	1    0    0    -1  
$EndComp
$Comp
L power:GND #PWR082
U 1 1 5CCE262B
P 5500 6450
F 0 "#PWR082" H 5500 6200 50  0001 C CNN
F 1 "GND" H 5575 6300 39  0000 R CNN
F 2 "" H 5500 6450 50  0001 C CNN
F 3 "" H 5500 6450 50  0001 C CNN
	1    5500 6450
	1    0    0    -1  
$EndComp
Wire Wire Line
	6100 6350 6175 6350
Wire Wire Line
	6100 6450 6175 6450
Wire Wire Line
	5600 6450 5500 6450
Wire Wire Line
	5600 6350 5500 6350
Wire Notes Line
	6525 6050 6525 6675
Wire Notes Line
	6525 6675 5375 6675
Wire Notes Line
	5375 6675 5375 6050
Wire Notes Line
	5375 6050 6525 6050
Text Notes 5400 6150 0    59   ~ 0
FOR BUTTONS PCB
Wire Wire Line
	4050 3775 4625 3775
NoConn ~ 1650 3875
$Comp
L power:GND #PWR0127
U 1 1 5CF23730
P 7375 4475
F 0 "#PWR0127" H 7375 4225 50  0001 C CNN
F 1 "GND" V 7375 4275 50  0000 C CNN
F 2 "" H 7375 4475 50  0001 C CNN
F 3 "" H 7375 4475 50  0001 C CNN
	1    7375 4475
	0    -1   -1   0   
$EndComp
Wire Wire Line
	7375 4575 7375 4475
Connection ~ 7375 4475
Wire Wire Line
	4525 875  4800 875 
$Comp
L power:+5V #PWR083
U 1 1 5CF3EE7F
P 4800 875
F 0 "#PWR083" H 4800 725 50  0001 C CNN
F 1 "+5V" H 4800 1025 50  0000 C CNN
F 2 "" H 4800 875 50  0001 C CNN
F 3 "" H 4800 875 50  0001 C CNN
	1    4800 875 
	1    0    0    -1  
$EndComp
Connection ~ 4800 875 
Wire Wire Line
	4800 875  5100 875 
Text Label 4525 5275 2    39   ~ 0
LS_OE
Wire Wire Line
	4050 5275 4300 5275
$Comp
L Device:R R26
U 1 1 5D02E5A7
P 4300 5450
F 0 "R26" V 4200 5450 50  0000 C CNN
F 1 "10k" V 4300 5450 39  0000 C CNN
F 2 "DC_Load_NewBrain:R_0805_2012Metric_Pad1.15x1.40mm_HandSolder" V 4230 5450 50  0001 C CNN
F 3 "~" H 4300 5450 50  0001 C CNN
	1    4300 5450
	-1   0    0    1   
$EndComp
$Comp
L power:GND #PWR02
U 1 1 5D02EDA1
P 4300 5650
F 0 "#PWR02" H 4300 5400 50  0001 C CNN
F 1 "GND" H 4305 5477 50  0000 C CNN
F 2 "" H 4300 5650 50  0001 C CNN
F 3 "" H 4300 5650 50  0001 C CNN
	1    4300 5650
	1    0    0    -1  
$EndComp
Wire Wire Line
	4300 5600 4300 5650
Wire Wire Line
	4300 5300 4300 5275
Connection ~ 4300 5275
Wire Wire Line
	4300 5275 4525 5275
Text Label 8150 3400 2    39   ~ 0
LS_OE
Text Label 8150 4150 2    39   ~ 0
LS_OE
Text Label 9825 3400 2    39   ~ 0
LS_OE
Text Label 9825 4125 2    39   ~ 0
LS_OE
$EndSCHEMATC
