(module Zumbadores:Buzzer_Jiangsu-Huaneng-Elec-MLT-7525 (layer F.Cu) (tedit 5CBDCE3C)
  (fp_text reference BZ1 (at 0 -4.8895) (layer F.SilkS)
    (effects (font (size 1 1) (thickness 0.15)))
  )
  (fp_text value Buzzer (at -0.0762 4.8006) (layer F.Fab)
    (effects (font (size 1 1) (thickness 0.15)))
  )
  (fp_line (start -2.2479 3.9624) (end 2.1717 3.9624) (layer F.SilkS) (width 0.15))
  (fp_line (start -2.2479 -3.9751) (end 2.1717 -3.9751) (layer F.SilkS) (width 0.15))
  (fp_line (start 3.937 -2.2098) (end 3.937 2.2098) (layer F.SilkS) (width 0.15))
  (fp_line (start -4.0005 -2.2098) (end -4.0005 2.2098) (layer F.SilkS) (width 0.15))
  (fp_line (start 2.6543 0) (end 1.778 0.8763) (layer F.SilkS) (width 0.15))
  (fp_line (start 1.778 -0.8763) (end 2.6543 0) (layer F.SilkS) (width 0.15))
  (fp_line (start 1.778 -0.8763) (end 1.778 0.8763) (layer F.SilkS) (width 0.15))
  (fp_line (start 2.6162 0) (end 1.905 -0.7112) (layer F.Fab) (width 0.15))
  (fp_line (start 1.905 0.7112) (end 2.6162 0) (layer F.Fab) (width 0.15))
  (fp_line (start 1.905 -0.7112) (end 1.905 0.7112) (layer F.Fab) (width 0.15))
  (fp_line (start 3.7211 2.4892) (end 2.4638 3.7465) (layer F.Fab) (width 0.15))
  (fp_line (start -2.5273 -3.7592) (end -3.7846 -2.5019) (layer F.Fab) (width 0.15))
  (fp_line (start -2.5273 3.7465) (end -3.7846 2.4892) (layer F.Fab) (width 0.15))
  (fp_line (start 3.7211 -2.5019) (end 2.4638 -3.7592) (layer F.Fab) (width 0.15))
  (fp_line (start 3.7211 -3.7535) (end 3.7211 3.7465) (layer F.Fab) (width 0.15))
  (fp_line (start -3.7846 3.7465) (end 3.7154 3.7465) (layer F.Fab) (width 0.15))
  (fp_line (start -3.7789 -3.7592) (end 3.7211 -3.7592) (layer F.Fab) (width 0.15))
  (fp_line (start -3.7846 -3.7592) (end -3.7846 3.7408) (layer F.Fab) (width 0.15))
  (fp_line (start -6.3119 2.921) (end -5.2197 2.921) (layer F.SilkS) (width 0.15))
  (fp_line (start -6.3119 -3.0099) (end -5.2197 -3.0099) (layer F.SilkS) (width 0.15))
  (fp_line (start -5.7658 -3.5687) (end -5.7658 -2.4765) (layer F.SilkS) (width 0.15))
  (pad "" smd rect (at 3.795 -2.98) (size 2 1.2) (layers F.Cu F.Paste F.Mask))
  (pad "" smd rect (at 3.795 2.98) (size 2 1.2) (layers F.Cu F.Paste F.Mask))
  (pad 2 smd rect (at -3.795 2.98) (size 2 1.2) (layers F.Cu F.Paste F.Mask))
  (pad 1 smd rect (at -3.795 -2.98) (size 2 1.2) (layers F.Cu F.Paste F.Mask))
)
