(module w_pin_strip:pin_socket_8x2 (layer F.Cu) (tedit 0)
  (descr "Pin socket 8x2pin")
  (tags "CONN DEV")
  (fp_text reference J3 (at 0 -3.81) (layer F.SilkS)
    (effects (font (size 1.016 1.016) (thickness 0.2032)))
  )
  (fp_text value Conn_02x08_Odd_Even (at 0 -5.08) (layer F.SilkS) hide
    (effects (font (size 1.016 0.889) (thickness 0.2032)))
  )
  (fp_line (start -10.16 -2.54) (end -10.16 2.54) (layer F.SilkS) (width 0.3048))
  (fp_line (start -7.62 0) (end -7.62 2.54) (layer F.SilkS) (width 0.3048))
  (fp_line (start -10.16 0) (end -7.62 0) (layer F.SilkS) (width 0.3048))
  (fp_line (start 10.16 2.54) (end -10.16 2.54) (layer F.SilkS) (width 0.3048))
  (fp_line (start 10.16 -2.54) (end 10.16 2.54) (layer F.SilkS) (width 0.3048))
  (fp_line (start -10.16 -2.54) (end 10.16 -2.54) (layer F.SilkS) (width 0.3048))
  (pad 16 thru_hole oval (at 8.89 -1.27) (size 1.524 1.99898) (drill 1.00076 (offset 0 -0.24892)) (layers *.Cu *.Mask F.SilkS))
  (pad 15 thru_hole oval (at 8.89 1.27) (size 1.524 1.99898) (drill 1.00076 (offset 0 0.24892)) (layers *.Cu *.Mask F.SilkS))
  (pad 14 thru_hole oval (at 6.35 -1.27) (size 1.524 1.99898) (drill 1.00076 (offset 0 -0.24892)) (layers *.Cu *.Mask F.SilkS))
  (pad 13 thru_hole oval (at 6.35 1.27) (size 1.524 1.99898) (drill 1.00076 (offset 0 0.24892)) (layers *.Cu *.Mask F.SilkS))
  (pad 12 thru_hole oval (at 3.81 -1.27) (size 1.524 1.99898) (drill 1.00076 (offset 0 -0.24892)) (layers *.Cu *.Mask F.SilkS))
  (pad 11 thru_hole oval (at 3.81 1.27) (size 1.524 1.99898) (drill 1.00076 (offset 0 0.24892)) (layers *.Cu *.Mask F.SilkS))
  (pad 10 thru_hole oval (at 1.27 -1.27) (size 1.524 1.99898) (drill 1.00076 (offset 0 -0.24892)) (layers *.Cu *.Mask F.SilkS))
  (pad 9 thru_hole oval (at 1.27 1.27) (size 1.524 1.99898) (drill 1.00076 (offset 0 0.24892)) (layers *.Cu *.Mask F.SilkS))
  (pad 8 thru_hole oval (at -1.27 -1.27) (size 1.524 1.99898) (drill 1.00076 (offset 0 -0.24892)) (layers *.Cu *.Mask F.SilkS))
  (pad 7 thru_hole oval (at -1.27 1.27) (size 1.524 1.99898) (drill 1.00076 (offset 0 0.24892)) (layers *.Cu *.Mask F.SilkS))
  (pad 6 thru_hole oval (at -3.81 -1.27) (size 1.524 1.99898) (drill 1.00076 (offset 0 -0.24892)) (layers *.Cu *.Mask F.SilkS))
  (pad 5 thru_hole oval (at -3.81 1.27) (size 1.524 1.99898) (drill 1.00076 (offset 0 0.24892)) (layers *.Cu *.Mask F.SilkS))
  (pad 4 thru_hole oval (at -6.35 -1.27) (size 1.524 1.99898) (drill 1.00076 (offset 0 -0.24892)) (layers *.Cu *.Mask F.SilkS))
  (pad 3 thru_hole oval (at -6.35 1.27) (size 1.524 1.99898) (drill 1.00076 (offset 0 0.24892)) (layers *.Cu *.Mask F.SilkS))
  (pad 2 thru_hole oval (at -8.89 -1.27) (size 1.524 1.99898) (drill 1.00076 (offset 0 -0.24892)) (layers *.Cu *.Mask F.SilkS))
  (pad 1 thru_hole rect (at -8.89 1.27) (size 1.524 1.99898) (drill 1.00076 (offset 0 0.24892)) (layers *.Cu *.Mask F.SilkS))
  (model walter/pin_strip/pin_socket_8x2.wrl
    (at (xyz 0 0 0))
    (scale (xyz 1 1 1))
    (rotate (xyz 0 0 0))
  )
)
