(module SOD-123 (layer F.Cu) (tedit 5CE97FFF)
  (fp_text reference D2 (at -0.01 -1.89) (layer F.SilkS)
    (effects (font (size 1 1) (thickness 0.15)))
  )
  (fp_text value 1N4148W (at 0.07 2.05) (layer F.Fab)
    (effects (font (size 1 1) (thickness 0.15)))
  )
  (fp_line (start -0.8509 -0.9779) (end -0.8509 0.9721) (layer F.SilkS) (width 0.1))
  (fp_line (start -0.9017 -0.9779) (end -0.9017 0.9721) (layer F.SilkS) (width 0.1))
  (fp_line (start -1.425 -0.85) (end 1.425 -0.85) (layer F.Fab) (width 0.1))
  (fp_line (start 1.425 -0.85) (end 1.425 0.85) (layer F.Fab) (width 0.1))
  (fp_line (start -1.425 -0.85) (end -1.425 0.85) (layer F.Fab) (width 0.1))
  (fp_line (start -1.425 0.85) (end 1.425 0.85) (layer F.Fab) (width 0.1))
  (fp_line (start 1.55 -0.975) (end 1.55 -0.75) (layer F.SilkS) (width 0.1))
  (fp_line (start 1.25 -0.975) (end 1.55 -0.975) (layer F.SilkS) (width 0.1))
  (fp_line (start 1.55 0.975) (end 1.3 0.975) (layer F.SilkS) (width 0.1))
  (fp_line (start 1.55 0.725) (end 1.55 0.975) (layer F.SilkS) (width 0.1))
  (fp_line (start -0.9779 -0.9779) (end -0.9779 0.9721) (layer F.SilkS) (width 0.1))
  (fp_line (start -0.6223 -0.9779) (end -0.9723 -0.9779) (layer F.SilkS) (width 0.1))
  (fp_line (start 2.159 -1.143) (end 2.159 1.1443) (layer F.CrtYd) (width 0.05))
  (fp_line (start 2.159 1.15) (end -2.1717 1.15) (layer F.CrtYd) (width 0.05))
  (fp_line (start -2.1717 1.1443) (end -2.1717 -1.143) (layer F.CrtYd) (width 0.05))
  (fp_line (start 2.159 -1.15) (end -2.1717 -1.15) (layer F.CrtYd) (width 0.05))
  (fp_text user %R (at 0 0) (layer F.Fab)
    (effects (font (size 0.5 0.5) (thickness 0.075)))
  )
  (fp_line (start -0.6223 0.975) (end -0.9723 0.975) (layer F.SilkS) (width 0.1))
  (pad A smd rect (at 1.565 0) (size 0.9 0.95) (layers F.Cu F.Paste F.Mask))
  (pad K smd rect (at -1.565 0) (size 0.9 0.95) (layers F.Cu F.Paste F.Mask))
)
